<?xml version="1.0" standalone="yes"?>

<svg version="1.1" viewBox="0.0 0.0 945.2388451443569 529.8215223097113" fill="none" stroke="none" stroke-linecap="square" stroke-miterlimit="10" xmlns="http://www.w3.org/2000/svg" xmlns:xlink="http://www.w3.org/1999/xlink"><clipPath id="p.0"><path d="m0 0l945.23883 0l0 529.82153l-945.23883 0l0 -529.82153z" clip-rule="nonzero"></path></clipPath><g clip-path="url(#p.0)"><path fill="#000000" fill-opacity="0.0" d="m0 0l945.23883 0l0 529.82153l-945.23883 0z" fill-rule="nonzero"></path><path fill="#000000" fill-opacity="0.0" d="m479.25723 47.010612l0 0c0 -3.1891098 2.585266 -5.774391 5.7743835 -5.774391l328.76617 0c1.5314331 0 3.000183 0.60837173 4.08313 1.6912804c1.0828857 1.0829086 1.6912842 2.5516472 1.6912842 4.083111l0 23.096886c0 3.1891098 -2.5853271 5.774391 -5.774414 5.774391l-328.76617 0l0 0c-3.1891174 0 -5.7743835 -2.5852814 -5.7743835 -5.774391z" fill-rule="nonzero"></path><path stroke="#000000" stroke-width="1.0" stroke-linejoin="round" stroke-linecap="butt" stroke-dasharray="1.0,3.0" d="m479.25723 47.010612l0 0c0 -3.1891098 2.585266 -5.774391 5.7743835 -5.774391l328.76617 0c1.5314331 0 3.000183 0.60837173 4.08313 1.6912804c1.0828857 1.0829086 1.6912842 2.5516472 1.6912842 4.083111l0 23.096886c0 3.1891098 -2.5853271 5.774391 -5.774414 5.774391l-328.76617 0l0 0c-3.1891174 0 -5.7743835 -2.5852814 -5.7743835 -5.774391z" fill-rule="nonzero"></path><path fill="#000000" fill-opacity="0.0" d="m494.25723 122.049866l0 0c-8.192963 0 -14.834656 -0.55345154 -14.834656 -1.2361679l0 -43.70089l0 0c0 -0.32785034 1.5629272 -0.64227295 4.3449707 -0.87409973c2.782013 -0.23182678 6.5552673 -0.36206818 10.489685 -0.36206818z" fill-rule="nonzero"></path><path fill="#000000" fill-opacity="0.0" d="m494.25723 122.049866l0 0c-8.192963 0 -14.834656 -0.55345154 -14.834656 -1.2361679l0 -43.70089l0 0c0 -0.32785034 1.5629272 -0.64227295 4.3449707 -0.87409973c2.782013 -0.23182678 6.5552673 -0.36206818 10.489685 -0.36206818" fill-rule="nonzero"></path><path stroke="#000000" stroke-width="1.0" stroke-linejoin="round" stroke-linecap="butt" d="m494.25723 122.049866l0 0c-8.192963 0 -14.834656 -0.55345154 -14.834656 -1.2361679l0 -43.70089l0 0c0 -0.32785034 1.5629272 -0.64227295 4.3449707 -0.87409973c2.782013 -0.23182678 6.5552673 -0.36206818 10.489685 -0.36206818" fill-rule="nonzero"></path><path fill="#000000" fill-opacity="0.0" d="m488.49344 75.87664l332.88193 0l0 46.173225l-332.88193 0z" fill-rule="nonzero"></path><path fill="#000000" d="m509.18094 107.91664l-9.625 0l0 -1.90625l3.9375 0l0 -11.171875l-3.671875 1.984375l-0.75 -1.734375l4.875 -2.5625l1.8125 0l0 13.484375l3.421875 0l0 1.90625zm52.828094 -13.421875l-6.421875 13.421875l-2.328125 0l6.65625 -13.421875l-8.265625 0l0 -1.890625l10.359375 0l0 1.890625zm52.859375 9.578125q0 0.96875 -0.40625 1.734375q-0.390625 0.75 -1.109375 1.265625q-0.703125 0.515625 -1.6875 0.796875q-0.96875 0.265625 -2.109375 0.265625q-1.25 0 -2.203125 -0.28125q-0.953125 -0.296875 -1.609375 -0.796875q-0.640625 -0.5 -0.96875 -1.1875q-0.328125 -0.703125 -0.328125 -1.53125q0 -1.40625 0.78125 -2.421875q0.796875 -1.015625 2.4375 -1.859375q-1.5 -0.75 -2.203125 -1.6875q-0.6875 -0.9375 -0.6875 -2.140625q0 -0.734375 0.296875 -1.421875q0.3125 -0.703125 0.921875 -1.234375q0.625 -0.546875 1.546875 -0.859375q0.9375 -0.328125 2.1875 -0.328125q1.1875 0 2.078125 0.25q0.890625 0.25 1.5 0.71875q0.609375 0.46875 0.90625 1.140625q0.3125 0.671875 0.3125 1.484375q0 1.34375 -0.75 2.28125q-0.734375 0.9375 -2.109375 1.640625q0.6875 0.34375 1.265625 0.75q0.59375 0.40625 1.015625 0.921875q0.4375 0.5 0.671875 1.125q0.25 0.609375 0.25 1.375zm-2.421875 -7.921875q0 -1.046875 -0.734375 -1.546875q-0.734375 -0.515625 -2.0625 -0.515625q-1.3125 0 -2.046875 0.5q-0.71875 0.5 -0.71875 1.515625q0 0.453125 0.171875 0.84375q0.171875 0.390625 0.53125 0.734375q0.375 0.328125 0.921875 0.65625q0.5625 0.328125 1.328125 0.671875q1.3125 -0.625 1.953125 -1.296875q0.65625 -0.671875 0.65625 -1.5625zm0.203125 8.078125q0 -0.4375 -0.140625 -0.84375q-0.140625 -0.421875 -0.5 -0.8125q-0.359375 -0.40625 -0.96875 -0.796875q-0.609375 -0.40625 -1.546875 -0.828125q-0.796875 0.390625 -1.34375 0.78125q-0.546875 0.375 -0.890625 0.765625q-0.328125 0.390625 -0.46875 0.8125q-0.140625 0.421875 -0.140625 0.890625q0 0.53125 0.234375 0.9375q0.234375 0.40625 0.625 0.6875q0.40625 0.28125 0.953125 0.421875q0.546875 0.140625 1.1875 0.140625q0.625 0 1.171875 -0.125q0.5625 -0.140625 0.953125 -0.40625q0.40625 -0.265625 0.640625 -0.65625q0.234375 -0.40625 0.234375 -0.96875zm53.296875 -1.734375l-7.015625 0l0 -1.921875l7.015625 0l0 1.921875zm14.5078125 0.515625q0 1.140625 -0.5 2.078125q-0.484375 0.9375 -1.34375 1.609375q-0.859375 0.671875 -2.03125 1.0625q-1.171875 0.375 -2.53125 0.375q-0.34375 0 -0.734375 -0.03125q-0.390625 -0.015625 -0.78125 -0.046875q-0.375 -0.015625 -0.75 -0.0625q-0.375 -0.03125 -0.65625 -0.078125l0 -1.859375q0.625 0.15625 1.4375 0.234375q0.8125 0.0625 1.65625 0.0625q0.9375 0 1.6875 -0.21875q0.75 -0.21875 1.265625 -0.640625q0.53125 -0.421875 0.8125 -1.0q0.28125 -0.59375 0.28125 -1.34375q0 -1.421875 -1.03125 -2.0625q-1.015625 -0.65625 -2.9375 -0.65625l-2.90625 0l0 -7.828125l8.25 0l0 1.78125l-6.328125 0l0 4.296875l1.328125 0q1.109375 0 2.140625 0.203125q1.046875 0.1875 1.859375 0.6875q0.828125 0.5 1.3125 1.34375q0.5 0.828125 0.5 2.09375zm51.46875 -0.515625l-7.015625 0l0 -1.921875l7.015625 0l0 1.921875zm14.8984375 5.421875l-10.09375 0l0 -1.828125l3.96875 -3.9375q0.96875 -0.96875 1.578125 -1.671875q0.609375 -0.703125 0.953125 -1.28125q0.34375 -0.578125 0.453125 -1.09375q0.125 -0.515625 0.125 -1.109375q0 -0.5625 -0.15625 -1.0625q-0.15625 -0.515625 -0.46875 -0.90625q-0.3125 -0.390625 -0.828125 -0.609375q-0.5 -0.21875 -1.203125 -0.21875q-0.96875 0 -1.765625 0.4375q-0.796875 0.421875 -1.46875 1.109375l-1.125 -1.34375q0.875 -0.90625 2.0 -1.453125q1.125 -0.5625 2.625 -0.5625q1.03125 0 1.859375 0.3125q0.84375 0.296875 1.453125 0.875q0.609375 0.578125 0.9375 1.40625q0.34375 0.828125 0.34375 1.875q0 0.875 -0.234375 1.625q-0.234375 0.75 -0.71875 1.5q-0.46875 0.734375 -1.1875 1.53125q-0.71875 0.796875 -1.703125 1.75l-2.78125 2.703125l7.4375 0l0 1.953125zm52.78125 -3.84375q0 0.96875 -0.40625 1.734375q-0.390625 0.75 -1.109375 1.265625q-0.703125 0.515625 -1.6875 0.796875q-0.96875 0.265625 -2.109375 0.265625q-1.25 0 -2.203125 -0.28125q-0.953125 -0.296875 -1.609375 -0.796875q-0.640625 -0.5 -0.96875 -1.1875q-0.328125 -0.703125 -0.328125 -1.53125q0 -1.40625 0.78125 -2.421875q0.796875 -1.015625 2.4375 -1.859375q-1.5 -0.75 -2.203125 -1.6875q-0.6875 -0.9375 -0.6875 -2.140625q0 -0.734375 0.296875 -1.421875q0.3125 -0.703125 0.921875 -1.234375q0.625 -0.546875 1.546875 -0.859375q0.9375 -0.328125 2.1875 -0.328125q1.1875 0 2.078125 0.25q0.890625 0.25 1.5 0.71875q0.609375 0.46875 0.90625 1.140625q0.3125 0.671875 0.3125 1.484375q0 1.34375 -0.75 2.28125q-0.734375 0.9375 -2.109375 1.640625q0.6875 0.34375 1.265625 0.75q0.59375 0.40625 1.015625 0.921875q0.4375 0.5 0.671875 1.125q0.25 0.609375 0.25 1.375zm-2.421875 -7.921875q0 -1.046875 -0.734375 -1.546875q-0.734375 -0.515625 -2.0625 -0.515625q-1.3125 0 -2.046875 0.5q-0.71875 0.5 -0.71875 1.515625q0 0.453125 0.171875 0.84375q0.171875 0.390625 0.53125 0.734375q0.375 0.328125 0.921875 0.65625q0.5625 0.328125 1.328125 0.671875q1.3125 -0.625 1.953125 -1.296875q0.65625 -0.671875 0.65625 -1.5625zm0.203125 8.078125q0 -0.4375 -0.140625 -0.84375q-0.140625 -0.421875 -0.5 -0.8125q-0.359375 -0.40625 -0.96875 -0.796875q-0.609375 -0.40625 -1.546875 -0.828125q-0.796875 0.390625 -1.34375 0.78125q-0.546875 0.375 -0.890625 0.765625q-0.328125 0.390625 -0.46875 0.8125q-0.140625 0.421875 -0.140625 0.890625q0 0.53125 0.234375 0.9375q0.234375 0.40625 0.625 0.6875q0.40625 0.28125 0.953125 0.421875q0.546875 0.140625 1.1875 0.140625q0.625 0 1.171875 -0.125q0.5625 -0.140625 0.953125 -0.40625q0.40625 -0.265625 0.640625 -0.65625q0.234375 -0.40625 0.234375 -0.96875z" fill-rule="nonzero"></path><path fill="#000000" fill-opacity="0.0" d="m806.5407 122.049866l0 0c8.192932 0 14.834595 -0.55345154 14.834595 -1.2361679l0 -43.70089l0 0c0 -0.32785034 -1.5629272 -0.64227295 -4.3449707 -0.87409973c-2.7819824 -0.23182678 -6.555237 -0.36206818 -10.489624 -0.36206818z" fill-rule="nonzero"></path><path fill="#000000" fill-opacity="0.0" d="m806.5407 122.049866l0 0c8.192932 0 14.834595 -0.55345154 14.834595 -1.2361679l0 -43.70089l0 0c0 -0.32785034 -1.5629272 -0.64227295 -4.3449707 -0.87409973c-2.7819824 -0.23182678 -6.555237 -0.36206818 -10.489624 -0.36206818" fill-rule="nonzero"></path><path stroke="#000000" stroke-width="1.0" stroke-linejoin="round" stroke-linecap="butt" d="m806.5407 122.049866l0 0c8.192932 0 14.834595 -0.55345154 14.834595 -1.2361679l0 -43.70089l0 0c0 -0.32785034 -1.5629272 -0.64227295 -4.3449707 -0.87409973c-2.7819824 -0.23182678 -6.555237 -0.36206818 -10.489624 -0.36206818" fill-rule="nonzero"></path><path fill="#000000" fill-opacity="0.0" d="m370.07184 82.47507l117.98425 0l0 32.97638l-117.98425 0z" fill-rule="nonzero"></path><path fill="#000000" d="m379.8531 95.73763l2.3125 0l2.890625 7.78125l0.609375 1.890625l0.65625 -1.9375l2.859375 -7.734375l2.234375 0l-4.625 11.765625l-2.34375 0l-4.59375 -11.765625zm90.03125 4.1875l-10.078125 0l0 -1.71875l10.078125 0l0 1.71875zm0 4.078125l-10.078125 0l0 -1.71875l10.078125 0l0 1.71875z" fill-rule="nonzero"></path><path fill="#000000" fill-opacity="0.0" d="m488.49344 34.740158l332.88193 0l0 46.173225l-332.88193 0z" fill-rule="nonzero"></path><path fill="#000000" d="m509.18094 66.78016l-9.625 0l0 -1.90625l3.9375 0l0 -11.171875l-3.671875 1.984375l-0.75 -1.734375l4.875 -2.5625l1.8125 0l0 13.484375l3.421875 0l0 1.90625zm52.90622 0l-10.09375 0l0 -1.828125l3.96875 -3.9375q0.96875 -0.96875 1.578125 -1.671875q0.609375 -0.703125 0.953125 -1.28125q0.34375 -0.578125 0.453125 -1.09375q0.125 -0.515625 0.125 -1.109375q0 -0.5625 -0.15625 -1.0625q-0.15625 -0.515625 -0.46875 -0.90625q-0.3125 -0.390625 -0.828125 -0.609375q-0.5 -0.21875 -1.203125 -0.21875q-0.96875 0 -1.765625 0.4375q-0.796875 0.421875 -1.46875 1.109375l-1.125 -1.34375q0.875 -0.90625 2.0 -1.453125q1.125 -0.5625 2.625 -0.5625q1.03125 0 1.859375 0.3125q0.84375 0.296875 1.453125 0.875q0.609375 0.578125 0.9375 1.40625q0.34375 0.828125 0.34375 1.875q0 0.875 -0.234375 1.625q-0.234375 0.75 -0.71875 1.5q-0.46875 0.734375 -1.1875 1.53125q-0.71875 0.796875 -1.703125 1.75l-2.78125 2.703125l7.4375 0l0 1.953125zm52.484375 -4.65625q0 1.015625 -0.40625 1.90625q-0.40625 0.875 -1.234375 1.546875q-0.8125 0.65625 -2.0625 1.046875q-1.234375 0.375 -2.890625 0.375q-0.90625 0 -1.640625 -0.0625q-0.71875 -0.0625 -1.359375 -0.15625l0 -1.828125q0.734375 0.125 1.53125 0.203125q0.8125 0.0625 1.65625 0.0625q1.15625 0 1.96875 -0.203125q0.8125 -0.203125 1.328125 -0.59375q0.515625 -0.390625 0.75 -0.9375q0.234375 -0.546875 0.234375 -1.234375q0 -0.640625 -0.28125 -1.109375q-0.28125 -0.46875 -0.796875 -0.78125q-0.5 -0.3125 -1.21875 -0.46875q-0.703125 -0.171875 -1.546875 -0.171875l-1.75 0l0 -1.671875l1.765625 0q0.703125 0 1.265625 -0.171875q0.5625 -0.1875 0.96875 -0.53125q0.40625 -0.34375 0.625 -0.828125q0.21875 -0.5 0.21875 -1.140625q0 -1.234375 -0.75 -1.796875q-0.75 -0.5625 -2.203125 -0.5625q-0.78125 0 -1.609375 0.15625q-0.8125 0.15625 -1.75 0.453125l0 -1.78125q0.40625 -0.140625 0.859375 -0.25q0.453125 -0.109375 0.890625 -0.1875q0.453125 -0.078125 0.890625 -0.109375q0.453125 -0.046875 0.875 -0.046875q1.21875 0 2.140625 0.265625q0.921875 0.265625 1.546875 0.765625q0.625 0.484375 0.9375 1.1875q0.3125 0.703125 0.3125 1.578125q0 1.3125 -0.671875 2.203125q-0.671875 0.890625 -1.84375 1.421875q0.59375 0.09375 1.171875 0.375q0.578125 0.28125 1.046875 0.71875q0.46875 0.4375 0.75 1.046875q0.28125 0.59375 0.28125 1.3125zm67.03906 1.265625l-2.609375 0l0 3.390625l-2.09375 0l0 -3.390625l-7.375 0l0 -1.796875l6.53125 -10.125l2.9375 0l0 10.125l2.609375 0l0 1.796875zm-4.703125 -9.953125l-5.328125 8.15625l5.328125 0l0 -8.15625zm69.52344 8.4375q0 1.140625 -0.5 2.078125q-0.484375 0.9375 -1.34375 1.609375q-0.859375 0.671875 -2.03125 1.0625q-1.171875 0.375 -2.53125 0.375q-0.34375 0 -0.734375 -0.03125q-0.390625 -0.015625 -0.78125 -0.046875q-0.375 -0.015625 -0.75 -0.0625q-0.375 -0.03125 -0.65625 -0.078125l0 -1.859375q0.625 0.15625 1.4375 0.234375q0.8125 0.0625 1.65625 0.0625q0.9375 0 1.6875 -0.21875q0.75 -0.21875 1.265625 -0.640625q0.53125 -0.421875 0.8125 -1.0q0.28125 -0.59375 0.28125 -1.34375q0 -1.421875 -1.03125 -2.0625q-1.015625 -0.65625 -2.9375 -0.65625l-2.90625 0l0 -7.828125l8.25 0l0 1.78125l-6.328125 0l0 4.296875l1.328125 0q1.109375 0 2.140625 0.203125q1.046875 0.1875 1.859375 0.6875q0.828125 0.5 1.3125 1.34375q0.5 0.828125 0.5 2.09375zm53.359375 0.046875q0 1.0625 -0.390625 1.984375q-0.375 0.921875 -1.078125 1.609375q-0.703125 0.6875 -1.6875 1.09375q-0.984375 0.390625 -2.203125 0.390625q-1.265625 0 -2.234375 -0.40625q-0.96875 -0.40625 -1.625 -1.25q-0.65625 -0.84375 -1.0 -2.109375q-0.34375 -1.28125 -0.34375 -3.03125q0 -1.171875 0.15625 -2.265625q0.15625 -1.109375 0.5 -2.078125q0.359375 -0.96875 0.9375 -1.78125q0.59375 -0.8125 1.46875 -1.390625q0.875 -0.578125 2.046875 -0.890625q1.1875 -0.328125 2.75 -0.328125l1.515625 0l0 1.78125l-1.640625 0q-1.375 0 -2.390625 0.328125q-1.0 0.328125 -1.6875 0.921875q-0.671875 0.59375 -1.046875 1.4375q-0.359375 0.84375 -0.453125 1.890625l-0.046875 0.484375q0.75 -0.4375 1.703125 -0.703125q0.96875 -0.265625 2.09375 -0.265625q1.171875 0 2.03125 0.34375q0.875 0.34375 1.453125 0.953125q0.59375 0.59375 0.875 1.4375q0.296875 0.84375 0.296875 1.84375zm-2.125 0.140625q0 -0.703125 -0.171875 -1.265625q-0.171875 -0.578125 -0.546875 -0.96875q-0.359375 -0.390625 -0.921875 -0.609375q-0.546875 -0.21875 -1.3125 -0.21875q-0.453125 0 -0.90625 0.078125q-0.453125 0.078125 -0.90625 0.234375q-0.4375 0.140625 -0.84375 0.328125q-0.390625 0.1875 -0.71875 0.40625q0 1.5 0.203125 2.515625q0.21875 1.015625 0.640625 1.625q0.421875 0.609375 1.03125 0.875q0.609375 0.25 1.40625 0.25q0.65625 0 1.21875 -0.21875q0.5625 -0.21875 0.953125 -0.640625q0.40625 -0.421875 0.640625 -1.015625q0.234375 -0.609375 0.234375 -1.375z" fill-rule="nonzero"></path><path fill="#cfe2f3" d="m16.496063 34.740158l305.16537 0l0 118.87091l-23.77478 23.77475l-281.3906 0z" fill-rule="nonzero"></path><path fill="#a5b4c2" d="m297.88666 177.38582l4.7549744 -19.01979l19.019806 -4.754959z" fill-rule="nonzero"></path><path fill="#000000" fill-opacity="0.0" d="m297.88666 177.38582l4.7549744 -19.01979l19.019806 -4.754959l-23.77478 23.77475l-281.3906 0l0 -142.64566l305.16537 0l0 118.87091" fill-rule="nonzero"></path><path stroke="#000000" stroke-width="2.0" stroke-linejoin="round" stroke-linecap="butt" d="m297.88666 177.38582l4.7549744 -19.01979l19.019806 -4.754959l-23.77478 23.77475l-281.3906 0l0 -142.64566l305.16537 0l0 118.87091" fill-rule="nonzero"></path><path fill="#000000" d="m26.105438 47.78311l1.84375 0l2.28125 6.15625l0.484375 1.5l0.515625 -1.53125l2.265625 -6.125l1.765625 0l-3.65625 9.3125l-1.84375 0l-3.65625 -9.3125zm29.123962 3.3125l-7.984375 0l0 -1.359375l7.984375 0l0 1.359375zm0 3.234375l-7.984375 0l0 -1.359375l7.984375 0l0 1.359375zm19.077087 6.5625l-4.578125 0l0 -17.234375l4.578125 0l0 1.296875l-3.046875 0l0 14.640625l3.046875 0l0 1.296875zm21.983337 -3.796875l-7.609375 0l0 -1.5l3.109375 0l0 -8.859375l-2.90625 1.578125l-0.59375 -1.375l3.859375 -2.03125l1.4375 0l0 10.6875l2.703125 0l0 1.5zm3.2104187 1.90625q0.484375 0.015625 0.921875 -0.09375q0.453125 -0.09375 0.78125 -0.296875q0.34375 -0.203125 0.546875 -0.5q0.203125 -0.296875 0.203125 -0.671875q0 -0.390625 -0.140625 -0.625q-0.125 -0.25 -0.296875 -0.453125q-0.171875 -0.203125 -0.3125 -0.4375q-0.125 -0.234375 -0.125 -0.625q0 -0.1875 0.078125 -0.390625q0.078125 -0.21875 0.21875 -0.390625q0.15625 -0.1875 0.390625 -0.296875q0.25 -0.109375 0.5625 -0.109375q0.328125 0 0.625 0.140625q0.3125 0.125 0.53125 0.40625q0.234375 0.28125 0.359375 0.703125q0.140625 0.40625 0.140625 0.96875q0 0.78125 -0.28125 1.484375q-0.28125 0.703125 -0.84375 1.25q-0.5625 0.5625 -1.40625 0.875q-0.828125 0.328125 -1.953125 0.328125l0 -1.265625zm27.592712 -12.53125l-5.078125 10.625l-1.84375 0l5.28125 -10.625l-6.5625 0l0 -1.5l8.203125 0l0 1.5zm3.1791687 12.53125q0.484375 0.015625 0.921875 -0.09375q0.453125 -0.09375 0.78125 -0.296875q0.34375 -0.203125 0.546875 -0.5q0.203125 -0.296875 0.203125 -0.671875q0 -0.390625 -0.140625 -0.625q-0.125 -0.25 -0.296875 -0.453125q-0.171875 -0.203125 -0.3125 -0.4375q-0.125 -0.234375 -0.125 -0.625q0 -0.1875 0.078125 -0.390625q0.078125 -0.21875 0.21875 -0.390625q0.15625 -0.1875 0.390625 -0.296875q0.25 -0.109375 0.5625 -0.109375q0.328125 0 0.625 0.140625q0.3125 0.125 0.53125 0.40625q0.234375 0.28125 0.359375 0.703125q0.140625 0.40625 0.140625 0.96875q0 0.78125 -0.28125 1.484375q-0.28125 0.703125 -0.84375 1.25q-0.5625 0.5625 -1.40625 0.875q-0.828125 0.328125 -1.953125 0.328125l0 -1.265625zm27.670837 -4.953125q0 0.78125 -0.328125 1.375q-0.3125 0.59375 -0.875 1.0q-0.5625 0.40625 -1.34375 0.625q-0.765625 0.21875 -1.65625 0.21875q-1.0 0 -1.765625 -0.21875q-0.75 -0.234375 -1.265625 -0.625q-0.5 -0.40625 -0.765625 -0.953125q-0.25 -0.546875 -0.25 -1.203125q0 -1.109375 0.609375 -1.921875q0.625 -0.8125 1.921875 -1.46875q-1.1875 -0.59375 -1.734375 -1.328125q-0.546875 -0.75 -0.546875 -1.703125q0 -0.578125 0.234375 -1.125q0.25 -0.546875 0.734375 -0.96875q0.5 -0.4375 1.21875 -0.6875q0.734375 -0.265625 1.734375 -0.265625q0.9375 0 1.640625 0.203125q0.71875 0.203125 1.1875 0.578125q0.484375 0.359375 0.71875 0.890625q0.25 0.53125 0.25 1.1875q0 1.046875 -0.59375 1.796875q-0.578125 0.734375 -1.671875 1.296875q0.546875 0.265625 1.0 0.59375q0.46875 0.328125 0.8125 0.734375q0.34375 0.390625 0.53125 0.890625q0.203125 0.484375 0.203125 1.078125zm-1.921875 -6.265625q0 -0.828125 -0.59375 -1.234375q-0.578125 -0.40625 -1.625 -0.40625q-1.03125 0 -1.609375 0.40625q-0.578125 0.390625 -0.578125 1.1875q0 0.375 0.125 0.6875q0.140625 0.296875 0.4375 0.5625q0.296875 0.265625 0.734375 0.53125q0.4375 0.265625 1.03125 0.53125q1.046875 -0.5 1.5625 -1.03125q0.515625 -0.53125 0.515625 -1.234375zm0.15625 6.390625q0 -0.34375 -0.109375 -0.671875q-0.109375 -0.328125 -0.40625 -0.640625q-0.28125 -0.3125 -0.765625 -0.625q-0.484375 -0.3125 -1.21875 -0.65625q-0.625 0.3125 -1.0625 0.609375q-0.4375 0.296875 -0.703125 0.609375q-0.25 0.3125 -0.375 0.65625q-0.109375 0.328125 -0.109375 0.703125q0 0.40625 0.171875 0.734375q0.1875 0.3125 0.5 0.546875q0.328125 0.21875 0.765625 0.328125q0.4375 0.109375 0.9375 0.109375q0.5 0 0.9375 -0.09375q0.4375 -0.109375 0.75 -0.3125q0.328125 -0.21875 0.5 -0.53125q0.1875 -0.328125 0.1875 -0.765625zm4.8666687 4.828125q0.484375 0.015625 0.921875 -0.09375q0.453125 -0.09375 0.78125 -0.296875q0.34375 -0.203125 0.546875 -0.5q0.203125 -0.296875 0.203125 -0.671875q0 -0.390625 -0.140625 -0.625q-0.125 -0.25 -0.296875 -0.453125q-0.171875 -0.203125 -0.3125 -0.4375q-0.125 -0.234375 -0.125 -0.625q0 -0.1875 0.078125 -0.390625q0.078125 -0.21875 0.21875 -0.390625q0.15625 -0.1875 0.390625 -0.296875q0.25 -0.109375 0.5625 -0.109375q0.328125 0 0.625 0.140625q0.3125 0.125 0.53125 0.40625q0.234375 0.28125 0.359375 0.703125q0.140625 0.40625 0.140625 0.96875q0 0.78125 -0.28125 1.484375q-0.28125 0.703125 -0.84375 1.25q-0.5625 0.5625 -1.40625 0.875q-0.828125 0.328125 -1.953125 0.328125l0 -1.265625zm26.311462 -6.203125l-5.546875 0l0 -1.515625l5.546875 0l0 1.515625zm11.304169 0.421875q0 0.890625 -0.390625 1.640625q-0.390625 0.734375 -1.078125 1.28125q-0.671875 0.53125 -1.609375 0.828125q-0.921875 0.296875 -2.0 0.296875q-0.265625 0 -0.578125 -0.015625q-0.3125 -0.015625 -0.625 -0.046875q-0.296875 -0.015625 -0.59375 -0.046875q-0.28125 -0.03125 -0.515625 -0.0625l0 -1.46875q0.5 0.125 1.140625 0.1875q0.640625 0.046875 1.296875 0.046875q0.75 0 1.34375 -0.171875q0.59375 -0.1875 1.0 -0.515625q0.421875 -0.328125 0.640625 -0.796875q0.234375 -0.46875 0.234375 -1.046875q0 -1.140625 -0.8125 -1.640625q-0.8125 -0.515625 -2.328125 -0.515625l-2.3125 0l0 -6.203125l6.53125 0l0 1.40625l-5.0 0l0 3.40625l1.046875 0q0.875 0 1.703125 0.15625q0.828125 0.15625 1.46875 0.5625q0.640625 0.390625 1.03125 1.0625q0.40625 0.65625 0.40625 1.65625zm3.4135437 5.78125q0.484375 0.015625 0.921875 -0.09375q0.453125 -0.09375 0.78125 -0.296875q0.34375 -0.203125 0.546875 -0.5q0.203125 -0.296875 0.203125 -0.671875q0 -0.390625 -0.140625 -0.625q-0.125 -0.25 -0.296875 -0.453125q-0.171875 -0.203125 -0.3125 -0.4375q-0.125 -0.234375 -0.125 -0.625q0 -0.1875 0.078125 -0.390625q0.078125 -0.21875 0.21875 -0.390625q0.15625 -0.1875 0.390625 -0.296875q0.25 -0.109375 0.5625 -0.109375q0.328125 0 0.625 0.140625q0.3125 0.125 0.53125 0.40625q0.234375 0.28125 0.359375 0.703125q0.140625 0.40625 0.140625 0.96875q0 0.78125 -0.28125 1.484375q-0.28125 0.703125 -0.84375 1.25q-0.5625 0.5625 -1.40625 0.875q-0.828125 0.328125 -1.953125 0.328125l0 -1.265625zm26.311462 -6.203125l-5.546875 0l0 -1.515625l5.546875 0l0 1.515625zm11.616669 4.296875l-8.0 0l0 -1.453125l3.140625 -3.109375q0.765625 -0.765625 1.25 -1.3125q0.484375 -0.5625 0.75 -1.015625q0.265625 -0.46875 0.359375 -0.875q0.09375 -0.40625 0.09375 -0.875q0 -0.453125 -0.125 -0.859375q-0.109375 -0.40625 -0.359375 -0.703125q-0.25 -0.3125 -0.65625 -0.484375q-0.390625 -0.171875 -0.953125 -0.171875q-0.765625 0 -1.40625 0.34375q-0.625 0.34375 -1.15625 0.890625l-0.890625 -1.078125q0.6875 -0.71875 1.578125 -1.15625q0.90625 -0.4375 2.09375 -0.4375q0.796875 0 1.453125 0.25q0.671875 0.234375 1.15625 0.6875q0.484375 0.453125 0.75 1.125q0.265625 0.65625 0.265625 1.46875q0 0.703125 -0.1875 1.296875q-0.1875 0.59375 -0.5625 1.1875q-0.375 0.578125 -0.953125 1.21875q-0.5625 0.625 -1.34375 1.375l-2.203125 2.140625l5.90625 0l0 1.546875zm3.1010437 1.90625q0.484375 0.015625 0.921875 -0.09375q0.453125 -0.09375 0.78125 -0.296875q0.34375 -0.203125 0.546875 -0.5q0.203125 -0.296875 0.203125 -0.671875q0 -0.390625 -0.140625 -0.625q-0.125 -0.25 -0.296875 -0.453125q-0.171875 -0.203125 -0.3125 -0.4375q-0.125 -0.234375 -0.125 -0.625q0 -0.1875 0.078125 -0.390625q0.078125 -0.21875 0.21875 -0.390625q0.15625 -0.1875 0.390625 -0.296875q0.25 -0.109375 0.5625 -0.109375q0.328125 0 0.625 0.140625q0.3125 0.125 0.53125 0.40625q0.234375 0.28125 0.359375 0.703125q0.140625 0.40625 0.140625 0.96875q0 0.78125 -0.28125 1.484375q-0.28125 0.703125 -0.84375 1.25q-0.5625 0.5625 -1.40625 0.875q-0.828125 0.328125 -1.953125 0.328125l0 -1.265625zm27.670837 -4.953125q0 0.78125 -0.328125 1.375q-0.3125 0.59375 -0.875 1.0q-0.5625 0.40625 -1.34375 0.625q-0.765625 0.21875 -1.65625 0.21875q-1.0 0 -1.765625 -0.21875q-0.75 -0.234375 -1.265625 -0.625q-0.5 -0.40625 -0.765625 -0.953125q-0.25 -0.546875 -0.25 -1.203125q0 -1.109375 0.609375 -1.921875q0.625 -0.8125 1.921875 -1.46875q-1.1875 -0.59375 -1.734375 -1.328125q-0.546875 -0.75 -0.546875 -1.703125q0 -0.578125 0.234375 -1.125q0.25 -0.546875 0.734375 -0.96875q0.5 -0.4375 1.21875 -0.6875q0.734375 -0.265625 1.734375 -0.265625q0.9375 0 1.640625 0.203125q0.71875 0.203125 1.1875 0.578125q0.484375 0.359375 0.71875 0.890625q0.25 0.53125 0.25 1.1875q0 1.046875 -0.59375 1.796875q-0.578125 0.734375 -1.671875 1.296875q0.546875 0.265625 1.0 0.59375q0.46875 0.328125 0.8125 0.734375q0.34375 0.390625 0.53125 0.890625q0.203125 0.484375 0.203125 1.078125zm-1.921875 -6.265625q0 -0.828125 -0.59375 -1.234375q-0.578125 -0.40625 -1.625 -0.40625q-1.03125 0 -1.609375 0.40625q-0.578125 0.390625 -0.578125 1.1875q0 0.375 0.125 0.6875q0.140625 0.296875 0.4375 0.5625q0.296875 0.265625 0.734375 0.53125q0.4375 0.265625 1.03125 0.53125q1.046875 -0.5 1.5625 -1.03125q0.515625 -0.53125 0.515625 -1.234375zm0.15625 6.390625q0 -0.34375 -0.109375 -0.671875q-0.109375 -0.328125 -0.40625 -0.640625q-0.28125 -0.3125 -0.765625 -0.625q-0.484375 -0.3125 -1.21875 -0.65625q-0.625 0.3125 -1.0625 0.609375q-0.4375 0.296875 -0.703125 0.609375q-0.25 0.3125 -0.375 0.65625q-0.109375 0.328125 -0.109375 0.703125q0 0.40625 0.171875 0.734375q0.1875 0.3125 0.5 0.546875q0.328125 0.21875 0.765625 0.328125q0.4375 0.109375 0.9375 0.109375q0.5 0 0.9375 -0.09375q0.4375 -0.109375 0.75 -0.3125q0.328125 -0.21875 0.5 -0.53125q0.1875 -0.328125 0.1875 -0.765625zm20.170837 6.71875l-4.578125 0l0 -1.296875l3.015625 0l0 -14.640625l-3.015625 0l0 -1.296875l4.578125 0l0 17.234375zm5.3197937 -1.890625q0.484375 0.015625 0.921875 -0.09375q0.453125 -0.09375 0.78125 -0.296875q0.34375 -0.203125 0.546875 -0.5q0.203125 -0.296875 0.203125 -0.671875q0 -0.390625 -0.140625 -0.625q-0.125 -0.25 -0.296875 -0.453125q-0.15625 -0.203125 -0.296875 -0.4375q-0.140625 -0.234375 -0.140625 -0.625q0 -0.1875 0.078125 -0.390625q0.078125 -0.21875 0.21875 -0.390625q0.15625 -0.1875 0.390625 -0.296875q0.25 -0.109375 0.578125 -0.109375q0.3125 0 0.609375 0.140625q0.3125 0.125 0.53125 0.40625q0.234375 0.28125 0.359375 0.703125q0.140625 0.40625 0.140625 0.96875q0 0.78125 -0.28125 1.484375q-0.28125 0.703125 -0.84375 1.25q-0.5625 0.5625 -1.40625 0.875q-0.828125 0.328125 -1.953125 0.328125l0 -1.265625zm2.90625 -11.390625q0.296875 0 0.546875 0.125q0.265625 0.109375 0.453125 0.3125q0.203125 0.1875 0.3125 0.453125q0.125 0.25 0.125 0.546875q0 0.296875 -0.125 0.546875q-0.109375 0.25 -0.3125 0.453125q-0.1875 0.1875 -0.453125 0.296875q-0.25 0.109375 -0.546875 0.109375q-0.296875 0 -0.546875 -0.109375q-0.25 -0.109375 -0.453125 -0.296875q-0.1875 -0.203125 -0.3125 -0.453125q-0.109375 -0.25 -0.109375 -0.546875q0 -0.296875 0.109375 -0.546875q0.125 -0.265625 0.3125 -0.453125q0.203125 -0.203125 0.453125 -0.3125q0.25 -0.125 0.546875 -0.125z" fill-rule="nonzero"></path><path fill="#000000" d="m34.48044 78.97061q-0.546875 0.140625 -1.125 0.1875q-0.578125 0.0625 -1.1875 0.0625q-1.75 0 -2.625 -0.78125q-0.859375 -0.796875 -0.859375 -2.4375l0 -4.859375l-2.609375 0l0 -1.359375l2.609375 0l0 -2.5625l1.625 -0.421875l0 2.984375l4.171875 0l0 1.359375l-4.171875 0l0 4.71875q0 1.0 0.53125 1.5q0.53125 0.5 1.5625 0.5q0.453125 0 0.984375 -0.0625q0.53125 -0.078125 1.09375 -0.21875l0 1.390625zm10.866669 -4.609375q0 1.09375 -0.3125 2.0q-0.296875 0.890625 -0.875 1.546875q-0.578125 0.640625 -1.40625 1.0q-0.828125 0.359375 -1.875 0.359375q-1.0 0 -1.796875 -0.3125q-0.78125 -0.3125 -1.34375 -0.90625q-0.546875 -0.609375 -0.84375 -1.5q-0.28125 -0.890625 -0.28125 -2.0625q0 -1.078125 0.296875 -1.96875q0.3125 -0.90625 0.875 -1.546875q0.578125 -0.640625 1.40625 -1.0q0.828125 -0.359375 1.875 -0.359375q1.0 0 1.796875 0.3125q0.796875 0.3125 1.34375 0.921875q0.5625 0.59375 0.84375 1.484375q0.296875 0.890625 0.296875 2.03125zm-1.65625 0.078125q0 -0.859375 -0.1875 -1.5q-0.1875 -0.65625 -0.546875 -1.078125q-0.34375 -0.4375 -0.859375 -0.65625q-0.5 -0.21875 -1.125 -0.21875q-0.71875 0 -1.234375 0.28125q-0.515625 0.28125 -0.84375 0.765625q-0.328125 0.46875 -0.484375 1.09375q-0.15625 0.625 -0.15625 1.3125q0 0.859375 0.1875 1.515625q0.203125 0.640625 0.546875 1.078125q0.359375 0.421875 0.859375 0.640625q0.5 0.21875 1.125 0.21875q0.734375 0 1.25 -0.28125q0.515625 -0.28125 0.84375 -0.75q0.328125 -0.46875 0.46875 -1.09375q0.15625 -0.640625 0.15625 -1.328125zm11.304169 4.53125q-0.546875 0.140625 -1.125 0.1875q-0.578125 0.0625 -1.1875 0.0625q-1.75 0 -2.625 -0.78125q-0.859375 -0.796875 -0.859375 -2.4375l0 -4.859375l-2.609375 0l0 -1.359375l2.609375 0l0 -2.5625l1.625 -0.421875l0 2.984375l4.171875 0l0 1.359375l-4.171875 0l0 4.71875q0 1.0 0.53125 1.5q0.53125 0.5 1.5625 0.5q0.453125 0 0.984375 -0.0625q0.53125 -0.078125 1.09375 -0.21875l0 1.390625zm8.741669 0.125l-0.03125 -1.25q-0.765625 0.75 -1.546875 1.09375q-0.78125 0.328125 -1.65625 0.328125q-0.796875 0 -1.359375 -0.203125q-0.5625 -0.203125 -0.9375 -0.5625q-0.359375 -0.359375 -0.53125 -0.84375q-0.171875 -0.484375 -0.171875 -1.046875q0 -1.40625 1.046875 -2.1875q1.046875 -0.796875 3.078125 -0.796875l1.9375 0l0 -0.828125q0 -0.8125 -0.53125 -1.3125q-0.53125 -0.5 -1.609375 -0.5q-0.796875 0 -1.5625 0.1875q-0.765625 0.171875 -1.578125 0.484375l0 -1.453125q0.296875 -0.109375 0.671875 -0.21875q0.390625 -0.109375 0.796875 -0.1875q0.421875 -0.078125 0.875 -0.125q0.453125 -0.0625 0.921875 -0.0625q0.84375 0 1.515625 0.1875q0.6875 0.1875 1.15625 0.578125q0.46875 0.375 0.71875 0.953125q0.25 0.5625 0.25 1.34375l0 6.421875l-1.453125 0zm-0.171875 -4.234375l-2.0625 0q-0.59375 0 -1.03125 0.125q-0.4375 0.109375 -0.71875 0.34375q-0.28125 0.21875 -0.421875 0.53125q-0.125 0.296875 -0.125 0.6875q0 0.28125 0.078125 0.53125q0.09375 0.234375 0.28125 0.421875q0.1875 0.1875 0.484375 0.3125q0.296875 0.109375 0.71875 0.109375q0.5625 0 1.28125 -0.34375q0.71875 -0.34375 1.515625 -1.078125l0 -1.640625zm7.6166687 -7.546875l-2.75 0l0 -1.328125l4.390625 0l0 11.765625l2.765625 0l0 1.34375l-7.46875 0l0 -1.34375l3.0625 0l0 -10.4375zm25.077087 5.78125l-7.984375 0l0 -1.359375l7.984375 0l0 1.359375zm0 3.234375l-7.984375 0l0 -1.359375l7.984375 0l0 1.359375zm20.920837 -3.296875q0 1.390625 -0.28125 2.546875q-0.265625 1.140625 -0.84375 1.96875q-0.5625 0.8125 -1.40625 1.265625q-0.828125 0.453125 -1.96875 0.453125q-0.96875 0 -1.765625 -0.359375q-0.796875 -0.375 -1.375 -1.140625q-0.5625 -0.765625 -0.875 -1.9375q-0.296875 -1.171875 -0.296875 -2.796875q0 -1.390625 0.28125 -2.53125q0.28125 -1.15625 0.84375 -1.96875q0.5625 -0.828125 1.40625 -1.28125q0.84375 -0.453125 1.96875 -0.453125q0.984375 0 1.78125 0.375q0.796875 0.359375 1.359375 1.125q0.5625 0.765625 0.859375 1.953125q0.3125 1.171875 0.3125 2.78125zm-1.625 0.0625q0 -0.3125 -0.03125 -0.625q-0.015625 -0.3125 -0.046875 -0.609375l-5.125 3.8125q0.140625 0.484375 0.34375 0.890625q0.21875 0.40625 0.515625 0.703125q0.3125 0.28125 0.6875 0.453125q0.390625 0.15625 0.875 0.15625q0.640625 0 1.15625 -0.296875q0.515625 -0.3125 0.875 -0.90625q0.359375 -0.609375 0.546875 -1.5q0.203125 -0.90625 0.203125 -2.078125zm-5.546875 -0.109375q0 0.28125 0 0.578125q0 0.28125 0.03125 0.546875l5.125 -3.796875q-0.125 -0.46875 -0.34375 -0.859375q-0.21875 -0.390625 -0.515625 -0.671875q-0.296875 -0.28125 -0.671875 -0.4375q-0.375 -0.15625 -0.859375 -0.15625q-0.625 0 -1.140625 0.3125q-0.515625 0.296875 -0.875 0.90625q-0.359375 0.609375 -0.5625 1.5q-0.1875 0.890625 -0.1875 2.078125zm10.116669 8.015625q0.484375 0.015625 0.921875 -0.09375q0.453125 -0.09375 0.78125 -0.296875q0.34375 -0.203125 0.546875 -0.5q0.203125 -0.296875 0.203125 -0.671875q0 -0.390625 -0.140625 -0.625q-0.125 -0.25 -0.296875 -0.453125q-0.15625 -0.203125 -0.296875 -0.4375q-0.140625 -0.234375 -0.140625 -0.625q0 -0.1875 0.078125 -0.390625q0.078125 -0.21875 0.21875 -0.390625q0.15625 -0.1875 0.390625 -0.296875q0.25 -0.109375 0.578125 -0.109375q0.3125 0 0.609375 0.140625q0.3125 0.125 0.53125 0.40625q0.234375 0.28125 0.359375 0.703125q0.140625 0.40625 0.140625 0.96875q0 0.78125 -0.28125 1.484375q-0.28125 0.703125 -0.84375 1.25q-0.5625 0.5625 -1.40625 0.875q-0.828125 0.328125 -1.953125 0.328125l0 -1.265625zm2.90625 -11.390625q0.296875 0 0.546875 0.125q0.265625 0.109375 0.453125 0.3125q0.203125 0.1875 0.3125 0.453125q0.125 0.25 0.125 0.546875q0 0.296875 -0.125 0.546875q-0.109375 0.25 -0.3125 0.453125q-0.1875 0.1875 -0.453125 0.296875q-0.25 0.109375 -0.546875 0.109375q-0.296875 0 -0.546875 -0.109375q-0.25 -0.109375 -0.453125 -0.296875q-0.1875 -0.203125 -0.3125 -0.453125q-0.109375 -0.25 -0.109375 -0.546875q0 -0.296875 0.109375 -0.546875q0.125 -0.265625 0.3125 -0.453125q0.203125 -0.203125 0.453125 -0.3125q0.25 -0.125 0.546875 -0.125z" fill-rule="nonzero"></path><path fill="#ead1dc" d="m25.496063 87.23624l82.05835 0l0 21.84375l-82.05835 0l0 -21.84375z" fill-rule="nonzero"></path><path fill="#000000" d="m35.246063 89.48624q-1.265625 -0.265625 -2.1875 -0.265625q-2.1875 0 -2.1875 2.28125l0 1.640625l4.09375 0l0 1.34375l-4.09375 0l0 6.609375l-1.640625 0l0 -6.609375l-2.984375 0l0 -1.34375l2.984375 0l0 -1.546875q0 -3.71875 3.875 -3.71875q0.96875 0 2.140625 0.21875l0 1.390625zm-9.75 2.296875l0 0zm19.851044 4.578125q0 1.09375 -0.3125 2.0q-0.296875 0.890625 -0.875 1.546875q-0.578125 0.640625 -1.40625 1.0q-0.828125 0.359375 -1.875 0.359375q-1.0 0 -1.796875 -0.3125q-0.78125 -0.3125 -1.34375 -0.90625q-0.546875 -0.609375 -0.84375 -1.5q-0.28125 -0.890625 -0.28125 -2.0625q0 -1.078125 0.296875 -1.96875q0.3125 -0.90625 0.875 -1.546875q0.578125 -0.640625 1.40625 -1.0q0.828125 -0.359375 1.875 -0.359375q1.0 0 1.796875 0.3125q0.796875 0.3125 1.34375 0.921875q0.5625 0.59375 0.84375 1.484375q0.296875 0.890625 0.296875 2.03125zm-1.65625 0.078125q0 -0.859375 -0.1875 -1.5q-0.1875 -0.65625 -0.546875 -1.078125q-0.34375 -0.4375 -0.859375 -0.65625q-0.5 -0.21875 -1.125 -0.21875q-0.71875 0 -1.234375 0.28125q-0.515625 0.28125 -0.84375 0.765625q-0.328125 0.46875 -0.484375 1.09375q-0.15625 0.625 -0.15625 1.3125q0 0.859375 0.1875 1.515625q0.203125 0.640625 0.546875 1.078125q0.359375 0.421875 0.859375 0.640625q0.5 0.21875 1.125 0.21875q0.734375 0 1.25 -0.28125q0.515625 -0.28125 0.84375 -0.75q0.328125 -0.46875 0.46875 -1.09375q0.15625 -0.640625 0.15625 -1.328125zm4.1791687 -4.65625l1.484375 0l0.046875 1.71875q0.828125 -1.0 1.625 -1.4375q0.796875 -0.453125 1.625 -0.453125q1.4375 0 2.1875 0.9375q0.75 0.9375 0.6875 2.78125l-1.625 0q0.015625 -1.21875 -0.375 -1.765625q-0.375 -0.5625 -1.109375 -0.5625q-0.328125 0 -0.65625 0.125q-0.328125 0.109375 -0.6875 0.375q-0.34375 0.25 -0.734375 0.65625q-0.390625 0.390625 -0.828125 0.953125l0 5.984375l-1.640625 0l0 -9.3125zm19.670837 4.84375q0 -1.0 0.265625 -1.890625q0.265625 -0.90625 0.8125 -1.578125q0.546875 -0.6875 1.40625 -1.078125q0.875 -0.40625 2.0625 -0.40625q0.484375 0 0.9375 0.078125q0.46875 0.0625 0.984375 0.21875l1.4375 -0.359375l0 13.28125l-1.625 0l0 -3.515625l0.078125 -1.984375q-1.3125 1.875 -3.140625 1.875q-0.8125 0 -1.421875 -0.328125q-0.59375 -0.34375 -1.0 -0.953125q-0.40625 -0.609375 -0.609375 -1.46875q-0.1875 -0.859375 -0.1875 -1.890625zm1.640625 -0.09375q0 0.78125 0.109375 1.40625q0.125 0.609375 0.359375 1.046875q0.25 0.4375 0.59375 0.671875q0.359375 0.21875 0.84375 0.21875q0.609375 0 1.296875 -0.546875q0.6875 -0.546875 1.4375 -1.625l0 -4.3125q-0.375 -0.1875 -0.84375 -0.296875q-0.46875 -0.109375 -1.0 -0.109375q-1.359375 0 -2.078125 0.90625q-0.71875 0.890625 -0.71875 2.640625zm27.077087 -1.4375l-7.984375 0l0 -1.359375l7.984375 0l0 1.359375zm0 3.234375l-7.984375 0l0 -1.359375l7.984375 0l0 1.359375z" fill-rule="nonzero"></path><path fill="#d5a6bd" d="m107.55441 87.23624l112.83023 0l0 21.84375l-112.83023 0l0 -21.84375z" fill-rule="nonzero"></path><path fill="#000000" d="m116.80441 101.09561l-7.609375 0l0 -1.5l3.109375 0l0 -8.859375l-2.90625 1.578125l-0.59375 -1.375l3.859375 -2.03125l1.4375 0l0 10.6875l2.703125 0l0 1.5zm6.2260437 -9.484375q0.296875 0 0.546875 0.125q0.265625 0.109375 0.453125 0.3125q0.203125 0.1875 0.3125 0.453125q0.125 0.25 0.125 0.546875q0 0.296875 -0.125 0.546875q-0.109375 0.25 -0.3125 0.453125q-0.1875 0.1875 -0.453125 0.296875q-0.25 0.109375 -0.546875 0.109375q-0.296875 0 -0.546875 -0.109375q-0.25 -0.109375 -0.453125 -0.296875q-0.1875 -0.203125 -0.3125 -0.453125q-0.109375 -0.25 -0.109375 -0.546875q0 -0.296875 0.109375 -0.546875q0.125 -0.265625 0.3125 -0.453125q0.203125 -0.203125 0.453125 -0.3125q0.25 -0.125 0.546875 -0.125zm0 6.796875q0.296875 0 0.546875 0.125q0.265625 0.109375 0.453125 0.3125q0.203125 0.1875 0.3125 0.453125q0.125 0.25 0.125 0.546875q0 0.296875 -0.125 0.546875q-0.109375 0.25 -0.3125 0.453125q-0.1875 0.1875 -0.453125 0.296875q-0.25 0.125 -0.546875 0.125q-0.296875 0 -0.546875 -0.125q-0.25 -0.109375 -0.453125 -0.296875q-0.1875 -0.203125 -0.3125 -0.453125q-0.109375 -0.25 -0.109375 -0.546875q0 -0.296875 0.109375 -0.546875q0.125 -0.265625 0.3125 -0.453125q0.203125 -0.203125 0.453125 -0.3125q0.25 -0.125 0.546875 -0.125zm9.694794 -9.09375l-2.75 0l0 -1.328125l4.390625 0l0 11.765625l2.765625 0l0 1.34375l-7.46875 0l0 -1.34375l3.0625 0l0 -10.4375zm14.960419 6.625q0 0.34375 -0.015625 0.578125q-0.015625 0.234375 -0.03125 0.4375l-6.53125 0q0 1.4375 0.796875 2.203125q0.796875 0.765625 2.296875 0.765625q0.40625 0 0.8125 -0.03125q0.40625 -0.046875 0.78125 -0.09375q0.390625 -0.0625 0.734375 -0.125q0.34375 -0.078125 0.640625 -0.15625l0 1.328125q-0.65625 0.1875 -1.484375 0.296875q-0.828125 0.125 -1.71875 0.125q-1.203125 0 -2.0625 -0.328125q-0.859375 -0.328125 -1.421875 -0.9375q-0.546875 -0.625 -0.8125 -1.515625q-0.265625 -0.890625 -0.265625 -2.03125q0 -0.984375 0.28125 -1.859375q0.296875 -0.875 0.828125 -1.53125q0.546875 -0.671875 1.328125 -1.0625q0.796875 -0.390625 1.796875 -0.390625q0.984375 0 1.734375 0.3125q0.75 0.296875 1.265625 0.859375q0.515625 0.5625 0.78125 1.375q0.265625 0.796875 0.265625 1.78125zm-1.6875 -0.21875q0.03125 -0.625 -0.125 -1.140625q-0.140625 -0.515625 -0.453125 -0.890625q-0.3125 -0.375 -0.78125 -0.578125q-0.453125 -0.203125 -1.078125 -0.203125q-0.515625 0 -0.953125 0.203125q-0.4375 0.203125 -0.765625 0.578125q-0.3125 0.359375 -0.5 0.890625q-0.1875 0.515625 -0.234375 1.140625l4.890625 0zm4.0697937 -3.9375l1.4375 0l0.0625 1.5q0.40625 -0.484375 0.78125 -0.796875q0.390625 -0.328125 0.75 -0.515625q0.375 -0.203125 0.75 -0.28125q0.390625 -0.078125 0.796875 -0.078125q1.4375 0 2.171875 0.859375q0.734375 0.84375 0.734375 2.546875l0 6.078125l-1.609375 0l0 -5.953125q0 -1.09375 -0.40625 -1.609375q-0.40625 -0.53125 -1.21875 -0.53125q-0.296875 0 -0.578125 0.09375q-0.28125 0.09375 -0.59375 0.3125q-0.296875 0.203125 -0.65625 0.578125q-0.359375 0.375 -0.8125 0.9375l0 6.171875l-1.609375 0l0 -9.3125zm16.960419 1.3125q0.265625 0.328125 0.40625 0.765625q0.140625 0.421875 0.140625 0.921875q0 0.734375 -0.265625 1.328125q-0.265625 0.59375 -0.75 1.03125q-0.46875 0.421875 -1.140625 0.65625q-0.671875 0.234375 -1.484375 0.234375q-0.578125 0 -1.09375 -0.125q-0.515625 -0.125 -0.8125 -0.3125q-0.171875 0.265625 -0.296875 0.5q-0.109375 0.21875 -0.109375 0.515625q0 0.34375 0.328125 0.578125q0.34375 0.234375 0.90625 0.25l2.4375 0.09375q0.703125 0.015625 1.28125 0.1875q0.59375 0.15625 1.015625 0.453125q0.421875 0.296875 0.65625 0.734375q0.25 0.421875 0.25 1.0q0 0.625 -0.28125 1.171875q-0.265625 0.5625 -0.828125 0.984375q-0.5625 0.421875 -1.421875 0.671875q-0.859375 0.25 -2.046875 0.25q-1.140625 0 -1.9375 -0.1875q-0.78125 -0.171875 -1.296875 -0.5q-0.5 -0.3125 -0.734375 -0.75q-0.234375 -0.4375 -0.234375 -0.96875q0 -0.671875 0.3125 -1.1875q0.3125 -0.515625 0.96875 -0.984375q-0.234375 -0.109375 -0.421875 -0.265625q-0.171875 -0.171875 -0.28125 -0.375q-0.109375 -0.203125 -0.171875 -0.421875q-0.046875 -0.21875 -0.046875 -0.4375q0 -0.609375 0.28125 -1.109375q0.28125 -0.5 0.671875 -0.9375q-0.171875 -0.21875 -0.3125 -0.421875q-0.125 -0.203125 -0.234375 -0.4375q-0.09375 -0.234375 -0.140625 -0.5q-0.046875 -0.28125 -0.046875 -0.640625q0 -0.71875 0.25 -1.3125q0.265625 -0.609375 0.75 -1.03125q0.484375 -0.4375 1.15625 -0.671875q0.671875 -0.234375 1.484375 -0.234375q0.34375 0 0.65625 0.046875q0.3125 0.046875 0.5625 0.125l3.375 0l0 1.3125l-1.5 0zm-5.59375 9.34375q0 0.65625 0.6875 0.953125q0.6875 0.3125 1.90625 0.3125q0.765625 0 1.28125 -0.140625q0.53125 -0.140625 0.84375 -0.375q0.328125 -0.21875 0.46875 -0.515625q0.140625 -0.28125 0.140625 -0.59375q0 -0.5625 -0.46875 -0.84375q-0.453125 -0.265625 -1.40625 -0.3125l-2.4375 -0.078125q-0.3125 0.203125 -0.515625 0.390625q-0.1875 0.203125 -0.296875 0.40625q-0.109375 0.203125 -0.15625 0.390625q-0.046875 0.203125 -0.046875 0.40625zm0.484375 -7.609375q0 0.4375 0.140625 0.8125q0.15625 0.375 0.421875 0.640625q0.28125 0.25 0.640625 0.390625q0.359375 0.140625 0.8125 0.140625q0.484375 0 0.859375 -0.15625q0.375 -0.171875 0.625 -0.4375q0.265625 -0.28125 0.390625 -0.640625q0.140625 -0.359375 0.140625 -0.75q0 -0.453125 -0.15625 -0.8125q-0.140625 -0.375 -0.421875 -0.640625q-0.265625 -0.265625 -0.640625 -0.40625q-0.359375 -0.140625 -0.796875 -0.140625q-0.484375 0 -0.859375 0.171875q-0.375 0.15625 -0.640625 0.4375q-0.25 0.265625 -0.390625 0.640625q-0.125 0.359375 -0.125 0.75zm16.163544 6.140625q-0.546875 0.140625 -1.125 0.1875q-0.578125 0.0625 -1.1875 0.0625q-1.75 0 -2.625 -0.78125q-0.859375 -0.796875 -0.859375 -2.4375l0 -4.859375l-2.609375 0l0 -1.359375l2.609375 0l0 -2.5625l1.625 -0.421875l0 2.984375l4.171875 0l0 1.359375l-4.171875 0l0 4.71875q0 1.0 0.53125 1.5q0.53125 0.5 1.5625 0.5q0.453125 0 0.984375 -0.0625q0.53125 -0.078125 1.09375 -0.21875l0 1.390625zm10.241669 0.125l-1.609375 0l0 -5.953125q0 -1.0625 -0.40625 -1.59375q-0.40625 -0.546875 -1.15625 -0.546875q-0.328125 0 -0.609375 0.09375q-0.28125 0.09375 -0.59375 0.3125q-0.296875 0.203125 -0.65625 0.578125q-0.359375 0.375 -0.84375 0.9375l0 6.171875l-1.609375 0l0 -13.109375l1.609375 0l0 3.796875l-0.046875 1.46875q0.375 -0.453125 0.734375 -0.765625q0.375 -0.3125 0.734375 -0.5q0.375 -0.203125 0.75 -0.28125q0.390625 -0.09375 0.796875 -0.09375q1.390625 0 2.140625 0.859375q0.765625 0.84375 0.765625 2.546875l0 6.078125zm8.351044 3.890625q-4.28125 -3.953125 -4.28125 -8.75q0 -1.125 0.21875 -2.234375q0.234375 -1.125 0.734375 -2.25q0.515625 -1.125 1.34375 -2.234375q0.828125 -1.125 2.015625 -2.234375l0.9375 0.953125q-3.59375 3.546875 -3.59375 7.875q0 2.15625 0.90625 4.140625q0.90625 1.984375 2.6875 3.75l-0.96875 0.984375zm3.8041687 -13.203125l1.84375 0l2.28125 6.15625l0.484375 1.5l0.515625 -1.53125l2.265625 -6.125l1.765625 0l-3.65625 9.3125l-1.84375 0l-3.65625 -9.3125zm13.038544 -4.5q4.265625 3.953125 4.265625 8.8125q0 1.0 -0.203125 2.078125q-0.203125 1.078125 -0.703125 2.203125q-0.484375 1.125 -1.3125 2.28125q-0.828125 1.171875 -2.09375 2.328125l-0.9375 -0.953125q1.8125 -1.78125 2.703125 -3.734375q0.890625 -1.953125 0.890625 -4.078125q0 -4.421875 -3.59375 -7.953125l0.984375 -0.984375z" fill-rule="nonzero"></path><path fill="#000000" d="m75.50961 122.97061q-0.546875 0.140625 -1.125 0.1875q-0.578125 0.0625 -1.1875 0.0625q-1.75 0 -2.625 -0.78125q-0.859375 -0.796875 -0.859375 -2.4375l0 -4.859375l-2.609375 0l0 -1.359375l2.609375 0l0 -2.5625l1.625 -0.421875l0 2.984375l4.171875 0l0 1.359375l-4.171875 0l0 4.71875q0 1.0 0.53125 1.5q0.53125 0.5 1.5625 0.5q0.453125 0 0.984375 -0.0625q0.53125 -0.078125 1.09375 -0.21875l0 1.390625zm10.866669 -4.609375q0 1.09375 -0.3125 2.0q-0.296875 0.890625 -0.875 1.546875q-0.578125 0.640625 -1.40625 1.0q-0.828125 0.359375 -1.875 0.359375q-1.0 0 -1.796875 -0.3125q-0.78125 -0.3125 -1.34375 -0.90625q-0.546875 -0.609375 -0.84375 -1.5q-0.28125 -0.890625 -0.28125 -2.0625q0 -1.078125 0.296875 -1.96875q0.3125 -0.90625 0.875 -1.546875q0.578125 -0.640625 1.40625 -1.0q0.828125 -0.359375 1.875 -0.359375q1.0 0 1.796875 0.3125q0.796875 0.3125 1.34375 0.921875q0.5625 0.59375 0.84375 1.484375q0.296875 0.890625 0.296875 2.03125zm-1.65625 0.078125q0 -0.859375 -0.1875 -1.5q-0.1875 -0.65625 -0.546875 -1.078125q-0.34375 -0.4375 -0.859375 -0.65625q-0.5 -0.21875 -1.125 -0.21875q-0.71875 0 -1.234375 0.28125q-0.515625 0.28125 -0.84375 0.765625q-0.328125 0.46875 -0.484375 1.09375q-0.15625 0.625 -0.15625 1.3125q0 0.859375 0.1875 1.515625q0.203125 0.640625 0.546875 1.078125q0.359375 0.421875 0.859375 0.640625q0.5 0.21875 1.125 0.21875q0.734375 0 1.25 -0.28125q0.515625 -0.28125 0.84375 -0.75q0.328125 -0.46875 0.46875 -1.09375q0.15625 -0.640625 0.15625 -1.328125zm11.304169 4.53125q-0.546875 0.140625 -1.125 0.1875q-0.578125 0.0625 -1.1875 0.0625q-1.75 0 -2.625 -0.78125q-0.859375 -0.796875 -0.859375 -2.4375l0 -4.859375l-2.609375 0l0 -1.359375l2.609375 0l0 -2.5625l1.625 -0.421875l0 2.984375l4.171875 0l0 1.359375l-4.171875 0l0 4.71875q0 1.0 0.53125 1.5q0.53125 0.5 1.5625 0.5q0.453125 0 0.984375 -0.0625q0.53125 -0.078125 1.09375 -0.21875l0 1.390625zm8.741669 0.125l-0.03125 -1.25q-0.765625 0.75 -1.546875 1.09375q-0.78125 0.328125 -1.65625 0.328125q-0.796875 0 -1.359375 -0.203125q-0.5625 -0.203125 -0.9375 -0.5625q-0.359375 -0.359375 -0.53125 -0.84375q-0.171875 -0.484375 -0.171875 -1.046875q0 -1.40625 1.046875 -2.1875q1.046875 -0.796875 3.078125 -0.796875l1.9375 0l0 -0.828125q0 -0.8125 -0.53125 -1.3125q-0.53125 -0.5 -1.609375 -0.5q-0.796875 0 -1.5625 0.1875q-0.765625 0.171875 -1.578125 0.484375l0 -1.453125q0.296875 -0.109375 0.671875 -0.21875q0.390625 -0.109375 0.796875 -0.1875q0.421875 -0.078125 0.875 -0.125q0.453125 -0.0625 0.921875 -0.0625q0.84375 0 1.515625 0.1875q0.6875 0.1875 1.15625 0.578125q0.46875 0.375 0.71875 0.953125q0.25 0.5625 0.25 1.34375l0 6.421875l-1.453125 0zm-0.171875 -4.234375l-2.0625 0q-0.59375 0 -1.03125 0.125q-0.4375 0.109375 -0.71875 0.34375q-0.28125 0.21875 -0.421875 0.53125q-0.125 0.296875 -0.125 0.6875q0 0.28125 0.078125 0.53125q0.09375 0.234375 0.28125 0.421875q0.1875 0.1875 0.484375 0.3125q0.296875 0.109375 0.71875 0.109375q0.5625 0 1.28125 -0.34375q0.71875 -0.34375 1.515625 -1.078125l0 -1.640625zm7.6166687 -7.546875l-2.75 0l0 -1.328125l4.390625 0l0 11.765625l2.765625 0l0 1.34375l-7.46875 0l0 -1.34375l3.0625 0l0 -10.4375zm25.077087 5.78125l-7.984375 0l0 -1.359375l7.984375 0l0 1.359375zm0 3.234375l-7.984375 0l0 -1.359375l7.984375 0l0 1.359375zm20.280212 2.640625q-0.546875 0.140625 -1.125 0.1875q-0.578125 0.0625 -1.1875 0.0625q-1.75 0 -2.625 -0.78125q-0.859375 -0.796875 -0.859375 -2.4375l0 -4.859375l-2.609375 0l0 -1.359375l2.609375 0l0 -2.5625l1.625 -0.421875l0 2.984375l4.171875 0l0 1.359375l-4.171875 0l0 4.71875q0 1.0 0.53125 1.5q0.53125 0.5 1.5625 0.5q0.453125 0 0.984375 -0.0625q0.53125 -0.078125 1.09375 -0.21875l0 1.390625zm10.866669 -4.609375q0 1.09375 -0.3125 2.0q-0.296875 0.890625 -0.875 1.546875q-0.578125 0.640625 -1.40625 1.0q-0.828125 0.359375 -1.875 0.359375q-1.0 0 -1.796875 -0.3125q-0.78125 -0.3125 -1.34375 -0.90625q-0.546875 -0.609375 -0.84375 -1.5q-0.28125 -0.890625 -0.28125 -2.0625q0 -1.078125 0.296875 -1.96875q0.3125 -0.90625 0.875 -1.546875q0.578125 -0.640625 1.40625 -1.0q0.828125 -0.359375 1.875 -0.359375q1.0 0 1.796875 0.3125q0.796875 0.3125 1.34375 0.921875q0.5625 0.59375 0.84375 1.484375q0.296875 0.890625 0.296875 2.03125zm-1.65625 0.078125q0 -0.859375 -0.1875 -1.5q-0.1875 -0.65625 -0.546875 -1.078125q-0.34375 -0.4375 -0.859375 -0.65625q-0.5 -0.21875 -1.125 -0.21875q-0.71875 0 -1.234375 0.28125q-0.515625 0.28125 -0.84375 0.765625q-0.328125 0.46875 -0.484375 1.09375q-0.15625 0.625 -0.15625 1.3125q0 0.859375 0.1875 1.515625q0.203125 0.640625 0.546875 1.078125q0.359375 0.421875 0.859375 0.640625q0.5 0.21875 1.125 0.21875q0.734375 0 1.25 -0.28125q0.515625 -0.28125 0.84375 -0.75q0.328125 -0.46875 0.46875 -1.09375q0.15625 -0.640625 0.15625 -1.328125zm11.304169 4.53125q-0.546875 0.140625 -1.125 0.1875q-0.578125 0.0625 -1.1875 0.0625q-1.75 0 -2.625 -0.78125q-0.859375 -0.796875 -0.859375 -2.4375l0 -4.859375l-2.609375 0l0 -1.359375l2.609375 0l0 -2.5625l1.625 -0.421875l0 2.984375l4.171875 0l0 1.359375l-4.171875 0l0 4.71875q0 1.0 0.53125 1.5q0.53125 0.5 1.5625 0.5q0.453125 0 0.984375 -0.0625q0.53125 -0.078125 1.09375 -0.21875l0 1.390625zm8.741669 0.125l-0.03125 -1.25q-0.765625 0.75 -1.546875 1.09375q-0.78125 0.328125 -1.65625 0.328125q-0.796875 0 -1.359375 -0.203125q-0.5625 -0.203125 -0.9375 -0.5625q-0.359375 -0.359375 -0.53125 -0.84375q-0.171875 -0.484375 -0.171875 -1.046875q0 -1.40625 1.046875 -2.1875q1.046875 -0.796875 3.078125 -0.796875l1.9375 0l0 -0.828125q0 -0.8125 -0.53125 -1.3125q-0.53125 -0.5 -1.609375 -0.5q-0.796875 0 -1.5625 0.1875q-0.765625 0.171875 -1.578125 0.484375l0 -1.453125q0.296875 -0.109375 0.671875 -0.21875q0.390625 -0.109375 0.796875 -0.1875q0.421875 -0.078125 0.875 -0.125q0.453125 -0.0625 0.921875 -0.0625q0.84375 0 1.515625 0.1875q0.6875 0.1875 1.15625 0.578125q0.46875 0.375 0.71875 0.953125q0.25 0.5625 0.25 1.34375l0 6.421875l-1.453125 0zm-0.171875 -4.234375l-2.0625 0q-0.59375 0 -1.03125 0.125q-0.4375 0.109375 -0.71875 0.34375q-0.28125 0.21875 -0.421875 0.53125q-0.125 0.296875 -0.125 0.6875q0 0.28125 0.078125 0.53125q0.09375 0.234375 0.28125 0.421875q0.1875 0.1875 0.484375 0.3125q0.296875 0.109375 0.71875 0.109375q0.5625 0 1.28125 -0.34375q0.71875 -0.34375 1.515625 -1.078125l0 -1.640625zm7.6166687 -7.546875l-2.75 0l0 -1.328125l4.390625 0l0 11.765625l2.765625 0l0 1.34375l-7.46875 0l0 -1.34375l3.0625 0l0 -10.4375zm25.530212 7.4375l-3.65625 0l0 3.78125l-1.59375 0l0 -3.78125l-3.640625 0l0 -1.421875l3.640625 0l0 -3.75l1.59375 0l0 3.75l3.65625 0l0 1.421875zm11.452087 -4.96875l1.84375 0l2.28125 6.15625l0.484375 1.5l0.515625 -1.53125l2.265625 -6.125l1.765625 0l-3.65625 9.3125l-1.84375 0l-3.65625 -9.3125zm16.710419 13.203125q-4.28125 -3.953125 -4.28125 -8.75q0 -1.125 0.21875 -2.234375q0.234375 -1.125 0.734375 -2.25q0.515625 -1.125 1.34375 -2.234375q0.828125 -1.125 2.015625 -2.234375l0.9375 0.953125q-3.59375 3.546875 -3.59375 7.875q0 2.15625 0.90625 4.140625q0.90625 1.984375 2.6875 3.75l-0.96875 0.984375zm4.2104187 -8.359375q0 -1.0 0.265625 -1.890625q0.265625 -0.90625 0.8125 -1.578125q0.546875 -0.6875 1.40625 -1.078125q0.875 -0.40625 2.0625 -0.40625q0.484375 0 0.9375 0.078125q0.46875 0.0625 0.984375 0.21875l1.4375 -0.359375l0 13.28125l-1.625 0l0 -3.515625l0.078125 -1.984375q-1.3125 1.875 -3.140625 1.875q-0.8125 0 -1.421875 -0.328125q-0.59375 -0.34375 -1.0 -0.953125q-0.40625 -0.609375 -0.609375 -1.46875q-0.1875 -0.859375 -0.1875 -1.890625zm1.640625 -0.09375q0 0.78125 0.109375 1.40625q0.125 0.609375 0.359375 1.046875q0.25 0.4375 0.59375 0.671875q0.359375 0.21875 0.84375 0.21875q0.609375 0 1.296875 -0.546875q0.6875 -0.546875 1.4375 -1.625l0 -4.3125q-0.375 -0.1875 -0.84375 -0.296875q-0.46875 -0.109375 -1.0 -0.109375q-1.359375 0 -2.078125 0.90625q-0.71875 0.890625 -0.71875 2.640625zm10.991669 -9.25q4.265625 3.953125 4.265625 8.8125q0 1.0 -0.203125 2.078125q-0.203125 1.078125 -0.703125 2.203125q-0.484375 1.125 -1.3125 2.28125q-0.828125 1.171875 -2.09375 2.328125l-0.9375 -0.953125q1.8125 -1.78125 2.703125 -3.734375q0.890625 -1.953125 0.890625 -4.078125q0 -4.421875 -3.59375 -7.953125l0.984375 -0.984375zm9.179169 15.71875q0.484375 0.015625 0.921875 -0.09375q0.453125 -0.09375 0.78125 -0.296875q0.34375 -0.203125 0.546875 -0.5q0.203125 -0.296875 0.203125 -0.671875q0 -0.390625 -0.140625 -0.625q-0.125 -0.25 -0.296875 -0.453125q-0.15625 -0.203125 -0.296875 -0.4375q-0.140625 -0.234375 -0.140625 -0.625q0 -0.1875 0.078125 -0.390625q0.078125 -0.21875 0.21875 -0.390625q0.15625 -0.1875 0.390625 -0.296875q0.25 -0.109375 0.578125 -0.109375q0.3125 0 0.609375 0.140625q0.3125 0.125 0.53125 0.40625q0.234375 0.28125 0.359375 0.703125q0.140625 0.40625 0.140625 0.96875q0 0.78125 -0.28125 1.484375q-0.28125 0.703125 -0.84375 1.25q-0.5625 0.5625 -1.40625 0.875q-0.828125 0.328125 -1.953125 0.328125l0 -1.265625zm2.90625 -11.390625q0.296875 0 0.546875 0.125q0.265625 0.109375 0.453125 0.3125q0.203125 0.1875 0.3125 0.453125q0.125 0.25 0.125 0.546875q0 0.296875 -0.125 0.546875q-0.109375 0.25 -0.3125 0.453125q-0.1875 0.1875 -0.453125 0.296875q-0.25 0.109375 -0.546875 0.109375q-0.296875 0 -0.546875 -0.109375q-0.25 -0.109375 -0.453125 -0.296875q-0.1875 -0.203125 -0.3125 -0.453125q-0.109375 -0.25 -0.109375 -0.546875q0 -0.296875 0.109375 -0.546875q0.125 -0.265625 0.3125 -0.453125q0.203125 -0.203125 0.453125 -0.3125q0.25 -0.125 0.546875 -0.125z" fill-rule="nonzero"></path><path fill="#000000" d="m34.85544 139.93936q0 0.34375 -0.015625 0.578125q-0.015625 0.234375 -0.03125 0.4375l-6.53125 0q0 1.4375 0.796875 2.203125q0.796875 0.765625 2.296875 0.765625q0.40625 0 0.8125 -0.03125q0.40625 -0.046875 0.78125 -0.09375q0.390625 -0.0625 0.734375 -0.125q0.34375 -0.078125 0.640625 -0.15625l0 1.328125q-0.65625 0.1875 -1.484375 0.296875q-0.828125 0.125 -1.71875 0.125q-1.203125 0 -2.0625 -0.328125q-0.859375 -0.328125 -1.421875 -0.9375q-0.546875 -0.625 -0.8125 -1.515625q-0.265625 -0.890625 -0.265625 -2.03125q0 -0.984375 0.28125 -1.859375q0.296875 -0.875 0.828125 -1.53125q0.546875 -0.671875 1.328125 -1.0625q0.796875 -0.390625 1.796875 -0.390625q0.984375 0 1.734375 0.3125q0.75 0.296875 1.265625 0.859375q0.515625 0.5625 0.78125 1.375q0.265625 0.796875 0.265625 1.78125zm-1.6875 -0.21875q0.03125 -0.625 -0.125 -1.140625q-0.140625 -0.515625 -0.453125 -0.890625q-0.3125 -0.375 -0.78125 -0.578125q-0.453125 -0.203125 -1.078125 -0.203125q-0.515625 0 -0.953125 0.203125q-0.4375 0.203125 -0.765625 0.578125q-0.3125 0.359375 -0.5 0.890625q-0.1875 0.515625 -0.234375 1.140625l4.890625 0zm4.0697937 -3.9375l1.4375 0l0.0625 1.5q0.40625 -0.484375 0.78125 -0.796875q0.390625 -0.328125 0.75 -0.515625q0.375 -0.203125 0.75 -0.28125q0.390625 -0.078125 0.796875 -0.078125q1.4375 0 2.171875 0.859375q0.734375 0.84375 0.734375 2.546875l0 6.078125l-1.609375 0l0 -5.953125q0 -1.09375 -0.40625 -1.609375q-0.40625 -0.53125 -1.21875 -0.53125q-0.296875 0 -0.578125 0.09375q-0.28125 0.09375 -0.59375 0.3125q-0.296875 0.203125 -0.65625 0.578125q-0.359375 0.375 -0.8125 0.9375l0 6.171875l-1.609375 0l0 -9.3125zm9.788544 4.84375q0 -1.1875 0.3125 -2.109375q0.328125 -0.921875 0.921875 -1.546875q0.609375 -0.640625 1.4375 -0.96875q0.84375 -0.328125 1.875 -0.328125q0.453125 0 0.875 0.0625q0.4375 0.046875 0.859375 0.171875l0 -3.921875l1.625 0l0 13.109375l-1.453125 0l-0.0625 -1.765625q-0.671875 0.984375 -1.46875 1.46875q-0.78125 0.46875 -1.703125 0.46875q-0.796875 0 -1.40625 -0.328125q-0.59375 -0.34375 -1.0 -0.953125q-0.40625 -0.609375 -0.609375 -1.453125q-0.203125 -0.859375 -0.203125 -1.90625zm1.640625 -0.09375q0 1.6875 0.5 2.515625q0.5 0.828125 1.40625 0.828125q0.609375 0 1.296875 -0.546875q0.6875 -0.546875 1.4375 -1.625l0 -4.3125q-0.40625 -0.1875 -0.890625 -0.28125q-0.484375 -0.109375 -0.953125 -0.109375q-1.3125 0 -2.0625 0.859375q-0.734375 0.84375 -0.734375 2.671875z" fill-rule="nonzero"></path><path fill="#000000" fill-opacity="0.0" d="m38.90814 2.6638424l232.0315 0l0 29.35433l-232.0315 0z" fill-rule="nonzero"></path><path fill="#000000" d="m82.3745 29.583841l2.859375 -13.593751l1.8125 0l-2.84375 13.593751l-1.828125 0zm9.944733 0l2.84375 -13.593751l1.671875 0l-1.765625 8.421876l4.890625 -4.6875l2.21875 0l-4.203125 3.6875l2.546875 6.171875l-1.84375 0l-1.953125 -5.0625l-2.046875 1.765625l-0.6875 3.296875l-1.671875 0zm9.59375 -3.734375q0 -2.890625 1.703125 -4.78125q1.40625 -1.5625 3.671875 -1.5625q1.78125 0 2.875 1.125q1.09375 1.109375 1.09375 3.0q0 1.6875 -0.6875 3.15625q-0.6875 1.453125 -1.953125 2.234375q-1.265625 0.78125 -2.671875 0.78125q-1.15625 0 -2.09375 -0.484375q-0.9375 -0.5 -1.4375 -1.390625q-0.5 -0.90625 -0.5 -2.078125zm1.6875 -0.171875q0 1.390625 0.65625 2.109375q0.671875 0.71875 1.703125 0.71875q0.546875 0 1.0625 -0.21875q0.53125 -0.21875 0.984375 -0.65625q0.46875 -0.453125 0.78125 -1.015625q0.328125 -0.578125 0.515625 -1.234375q0.28125 -0.921875 0.28125 -1.765625q0 -1.328125 -0.671875 -2.0625q-0.671875 -0.75 -1.6875 -0.75q-0.78125 0 -1.4375 0.375q-0.65625 0.375 -1.1875 1.109375q-0.515625 0.71875 -0.765625 1.6875q-0.234375 0.953125 -0.234375 1.703125zm8.391342 3.90625l2.0625 -9.859375l1.671875 0l-0.34375 1.625q0.9375 -1.046875 1.671875 -1.4375q0.734375 -0.40625 1.609375 -0.40625q0.90625 0 1.515625 0.5q0.625 0.484375 0.828125 1.34375q0.75 -0.921875 1.578125 -1.375q0.828125 -0.46875 1.75 -0.46875q1.234375 0 1.84375 0.59375q0.625 0.578125 0.625 1.640625q0 0.453125 -0.21875 1.5l-1.328125 6.34375l-1.671875 0l1.359375 -6.515625q0.171875 -0.796875 0.171875 -1.140625q0 -0.484375 -0.3125 -0.75q-0.296875 -0.28125 -0.859375 -0.28125q-0.75 0 -1.53125 0.453125q-0.78125 0.453125 -1.21875 1.1875q-0.421875 0.734375 -0.75 2.265625l-1.0 4.78125l-1.671875 0l1.390625 -6.65625q0.140625 -0.671875 0.140625 -0.953125q0 -0.484375 -0.296875 -0.78125q-0.296875 -0.296875 -0.78125 -0.296875q-0.71875 0 -1.5 0.453125q-0.78125 0.453125 -1.28125 1.265625q-0.484375 0.8125 -0.796875 2.3125l-0.984375 4.65625l-1.671875 0zm15.540802 0l2.0625 -9.859375l1.671875 0l-0.34375 1.625q0.9375 -1.046875 1.671875 -1.4375q0.734375 -0.40625 1.609375 -0.40625q0.90625 0 1.515625 0.5q0.625 0.484375 0.828125 1.34375q0.75 -0.921875 1.578125 -1.375q0.828125 -0.46875 1.75 -0.46875q1.234375 0 1.84375 0.59375q0.625 0.578125 0.625 1.640625q0 0.453125 -0.21875 1.5l-1.328125 6.34375l-1.671875 0l1.359375 -6.515625q0.171875 -0.796875 0.171875 -1.140625q0 -0.484375 -0.3125 -0.75q-0.296875 -0.28125 -0.859375 -0.28125q-0.75 0 -1.53125 0.453125q-0.78125 0.453125 -1.21875 1.1875q-0.421875 0.734375 -0.75 2.265625l-1.0 4.78125l-1.671875 0l1.390625 -6.65625q0.140625 -0.671875 0.140625 -0.953125q0 -0.484375 -0.296875 -0.78125q-0.296875 -0.296875 -0.78125 -0.296875q-0.71875 0 -1.5 0.453125q-0.78125 0.453125 -1.28125 1.265625q-0.484375 0.8125 -0.796875 2.3125l-0.984375 4.65625l-1.671875 0zm22.197052 -1.21875q-0.875 0.75 -1.6875 1.09375q-0.8125 0.34375 -1.71875 0.34375q-1.375 0 -2.21875 -0.796875q-0.828125 -0.796875 -0.828125 -2.0625q0 -0.8125 0.375 -1.453125q0.390625 -0.640625 1.0 -1.015625q0.625 -0.390625 1.53125 -0.5625q0.5625 -0.109375 2.140625 -0.171875q1.578125 -0.0625 2.265625 -0.328125q0.203125 -0.6875 0.203125 -1.140625q0 -0.59375 -0.4375 -0.921875q-0.578125 -0.46875 -1.703125 -0.46875q-1.046875 0 -1.734375 0.46875q-0.671875 0.46875 -0.96875 1.328125l-1.703125 -0.140625q0.515625 -1.46875 1.640625 -2.25q1.140625 -0.78125 2.859375 -0.78125q1.828125 0 2.890625 0.875q0.8125 0.65625 0.8125 1.6875q0 0.796875 -0.234375 1.828125l-0.546875 2.453125q-0.25 1.171875 -0.25 1.890625q0 0.46875 0.203125 1.34375l-1.703125 0q-0.140625 -0.484375 -0.1875 -1.21875zm0.609375 -3.765625q-0.34375 0.125 -0.75 0.203125q-0.40625 0.078125 -1.34375 0.15625q-1.46875 0.140625 -2.078125 0.34375q-0.59375 0.1875 -0.90625 0.625q-0.3125 0.4375 -0.3125 0.96875q0 0.703125 0.484375 1.15625q0.5 0.453125 1.390625 0.453125q0.84375 0 1.609375 -0.4375q0.765625 -0.4375 1.203125 -1.21875q0.453125 -0.796875 0.703125 -2.25zm3.1100922 4.984375l2.0625 -9.859375l1.53125 0l-0.375 1.71875q1.0 -1.0 1.859375 -1.46875q0.859375 -0.46875 1.765625 -0.46875q1.203125 0 1.875 0.65625q0.6875 0.640625 0.6875 1.734375q0 0.546875 -0.25 1.71875l-1.25 5.96875l-1.671875 0l1.3125 -6.25q0.1875 -0.90625 0.1875 -1.34375q0 -0.484375 -0.34375 -0.78125q-0.328125 -0.3125 -0.96875 -0.3125q-1.296875 0 -2.3125 0.921875q-1.0 0.921875 -1.46875 3.1875l-0.953125 4.578125l-1.6875 0zm17.031967 -1.421875q-1.453125 1.640625 -3.015625 1.640625q-1.40625 0 -2.34375 -1.03125q-0.921875 -1.03125 -0.921875 -3.0q0 -1.796875 0.734375 -3.28125q0.75 -1.5 1.84375 -2.234375q1.109375 -0.75 2.234375 -0.75q1.828125 0 2.765625 1.78125l1.109375 -5.296876l1.671875 0l-2.828125 13.593751l-1.546875 0l0.296875 -1.421875zm-4.609375 -2.703125q0 1.03125 0.203125 1.625q0.203125 0.59375 0.6875 0.984375q0.5 0.390625 1.1875 0.390625q1.140625 0 2.0625 -1.1875q1.25 -1.578125 1.25 -3.890625q0 -1.171875 -0.609375 -1.828125q-0.609375 -0.65625 -1.546875 -0.65625q-0.59375 0 -1.09375 0.265625q-0.5 0.265625 -0.984375 0.921875q-0.484375 0.640625 -0.828125 1.640625q-0.328125 0.984375 -0.328125 1.734375zm8.625732 0.390625q0 -2.890625 1.703125 -4.78125q1.40625 -1.5625 3.671875 -1.5625q1.78125 0 2.875 1.125q1.09375 1.109375 1.09375 3.0q0 1.6875 -0.6875 3.15625q-0.6875 1.453125 -1.953125 2.234375q-1.265625 0.78125 -2.671875 0.78125q-1.15625 0 -2.09375 -0.484375q-0.9375 -0.5 -1.4375 -1.390625q-0.5 -0.90625 -0.5 -2.078125zm1.6875 -0.171875q0 1.390625 0.65625 2.109375q0.671875 0.71875 1.703125 0.71875q0.546875 0 1.0625 -0.21875q0.53125 -0.21875 0.984375 -0.65625q0.46875 -0.453125 0.78125 -1.015625q0.328125 -0.578125 0.515625 -1.234375q0.28125 -0.921875 0.28125 -1.765625q0 -1.328125 -0.671875 -2.0625q-0.671875 -0.75 -1.6875 -0.75q-0.78125 0 -1.4375 0.375q-0.65625 0.375 -1.1875 1.109375q-0.515625 0.71875 -0.765625 1.6875q-0.234375 0.953125 -0.234375 1.703125zm10.891327 3.90625l-1.625 -9.859375l1.640625 0l0.84375 5.4375q0.140625 0.890625 0.34375 2.90625q0.484375 -1.046875 1.234375 -2.40625l3.28125 -5.9375l1.78125 0l-5.640625 9.859375l-1.859375 0zm9.21875 -11.703125l0.40625 -1.890626l1.65625 0l-0.390625 1.890626l-1.671875 0zm-2.453125 11.703125l2.0625 -9.859375l1.6875 0l-2.0625 9.859375l-1.6875 0zm4.2073364 0l2.0625 -9.859375l1.53125 0l-0.375 1.71875q1.0 -1.0 1.859375 -1.46875q0.859375 -0.46875 1.765625 -0.46875q1.203125 0 1.875 0.65625q0.6875 0.640625 0.6875 1.734375q0 0.546875 -0.25 1.71875l-1.25 5.96875l-1.671875 0l1.3125 -6.25q0.1875 -0.90625 0.1875 -1.34375q0 -0.484375 -0.34375 -0.78125q-0.328125 -0.3125 -0.96875 -0.3125q-1.296875 0 -2.3125 0.921875q-1.0 0.921875 -1.46875 3.1875l-0.953125 4.578125l-1.6875 0zm17.031952 -1.421875q-1.453125 1.640625 -3.015625 1.640625q-1.40625 0 -2.34375 -1.03125q-0.921875 -1.03125 -0.921875 -3.0q0 -1.796875 0.734375 -3.28125q0.75 -1.5 1.84375 -2.234375q1.109375 -0.75 2.234375 -0.75q1.828125 0 2.765625 1.78125l1.109375 -5.296876l1.671875 0l-2.828125 13.593751l-1.546875 0l0.296875 -1.421875zm-4.609375 -2.703125q0 1.03125 0.203125 1.625q0.203125 0.59375 0.6875 0.984375q0.5 0.390625 1.1875 0.390625q1.140625 0 2.0625 -1.1875q1.25 -1.578125 1.25 -3.890625q0 -1.171875 -0.609375 -1.828125q-0.609375 -0.65625 -1.546875 -0.65625q-0.59375 0 -1.09375 0.265625q-0.5 0.265625 -0.984375 0.921875q-0.484375 0.640625 -0.828125 1.640625q-0.328125 0.984375 -0.328125 1.734375zm15.063232 2.34375q-1.78125 2.0 -3.625 2.0q-1.140625 0 -1.84375 -0.640625q-0.703125 -0.65625 -0.703125 -1.609375q0 -0.625 0.3125 -2.140625l1.1875 -5.6875l1.6875 0l-1.328125 6.3125q-0.15625 0.78125 -0.15625 1.21875q0 0.5625 0.328125 0.875q0.34375 0.296875 1.0 0.296875q0.703125 0 1.375 -0.34375q0.671875 -0.34375 1.15625 -0.921875q0.5 -0.578125 0.796875 -1.375q0.203125 -0.515625 0.484375 -1.796875l0.890625 -4.265625l1.671875 0l-2.0625 9.859375l-1.546875 0l0.375 -1.78125z" fill-rule="nonzero"></path><path fill="#000000" fill-opacity="0.0" d="m346.39108 9.897637l0 336.50394" fill-rule="nonzero"></path><path stroke="#000000" stroke-width="1.0" stroke-linejoin="round" stroke-linecap="butt" stroke-dasharray="4.0,3.0" d="m346.39108 9.897637l0 336.50394" fill-rule="nonzero"></path><path fill="#000000" fill-opacity="0.0" d="m358.90814 2.6638424l232.0315 0l0 29.35433l-232.0315 0z" fill-rule="nonzero"></path><path fill="#000000" d="m431.47272 29.583841l-0.828125 -13.593751l1.84375 0l0.3125 6.718751q0.03125 0.484375 0.09375 2.609375q0.015625 0.59375 0.015625 0.84375q0 0.15625 0 0.921875q1.125 -2.328125 1.625 -3.265625l4.140625 -7.828126l1.875 0l0.453125 7.937501q0.078125 1.375 0.109375 3.296875q0.15625 -0.484375 0.59375 -1.421875q0.671875 -1.5 1.0 -2.15625l3.875 -7.656251l1.859375 0l-6.921875 13.593751l-1.953125 0l-0.453125 -8.234375q-0.0625 -1.0625 -0.09375 -2.609375q-0.578125 1.296875 -0.953125 2.015625l-4.71875 8.828125l-1.875 0zm15.327423 -3.734375q0 -2.890625 1.703125 -4.78125q1.40625 -1.5625 3.671875 -1.5625q1.78125 0 2.875 1.125q1.09375 1.109375 1.09375 3.0q0 1.6875 -0.6875 3.15625q-0.6875 1.453125 -1.953125 2.234375q-1.265625 0.78125 -2.671875 0.78125q-1.15625 0 -2.09375 -0.484375q-0.9375 -0.5 -1.4375 -1.390625q-0.5 -0.90625 -0.5 -2.078125zm1.6875 -0.171875q0 1.390625 0.65625 2.109375q0.671875 0.71875 1.703125 0.71875q0.546875 0 1.0625 -0.21875q0.53125 -0.21875 0.984375 -0.65625q0.46875 -0.453125 0.78125 -1.015625q0.328125 -0.578125 0.515625 -1.234375q0.28125 -0.921875 0.28125 -1.765625q0 -1.328125 -0.671875 -2.0625q-0.671875 -0.75 -1.6875 -0.75q-0.78125 0 -1.4375 0.375q-0.65625 0.375 -1.1875 1.109375q-0.515625 0.71875 -0.765625 1.6875q-0.234375 0.953125 -0.234375 1.703125zm8.391327 3.90625l2.0625 -9.859375l1.484375 0l-0.421875 2.015625q0.765625 -1.140625 1.484375 -1.6875q0.734375 -0.546875 1.5 -0.546875q0.5 0 1.234375 0.359375l-0.6875 1.5625q-0.4375 -0.3125 -0.953125 -0.3125q-0.875 0 -1.8125 0.984375q-0.921875 0.984375 -1.453125 3.53125l-0.828125 3.953125l-1.609375 0zm6.243927 0l2.84375 -13.593751l1.671875 0l-1.765625 8.421876l4.890625 -4.6875l2.21875 0l-4.203125 3.6875l2.546875 6.171875l-1.84375 0l-1.953125 -5.0625l-2.046875 1.765625l-0.6875 3.296875l-1.671875 0zm9.453125 -3.375l1.6875 -0.09375q0 0.71875 0.21875 1.234375q0.21875 0.515625 0.8125 0.84375q0.609375 0.3125 1.40625 0.3125q1.109375 0 1.671875 -0.4375q0.5625 -0.453125 0.5625 -1.046875q0 -0.4375 -0.34375 -0.828125q-0.34375 -0.390625 -1.671875 -0.953125q-1.328125 -0.578125 -1.703125 -0.8125q-0.625 -0.375 -0.9375 -0.890625q-0.3125 -0.515625 -0.3125 -1.1875q0 -1.171875 0.921875 -2.0q0.9375 -0.84375 2.609375 -0.84375q1.84375 0 2.8125 0.859375q0.96875 0.859375 1.015625 2.265625l-1.640625 0.109375q-0.046875 -0.890625 -0.640625 -1.40625q-0.59375 -0.53125 -1.671875 -0.53125q-0.875 0 -1.359375 0.40625q-0.484375 0.390625 -0.484375 0.859375q0 0.46875 0.421875 0.8125q0.28125 0.25 1.4375 0.75q1.9375 0.828125 2.4375 1.3125q0.796875 0.765625 0.796875 1.875q0 0.734375 -0.453125 1.4375q-0.453125 0.703125 -1.375 1.125q-0.921875 0.421875 -2.171875 0.421875q-1.703125 0 -2.90625 -0.84375q-1.203125 -0.84375 -1.140625 -2.75zm8.359375 7.156248l2.84375 -13.640623l1.546875 0l-0.28125 1.375q0.859375 -0.890625 1.53125 -1.234375q0.6875 -0.359375 1.453125 -0.359375q1.40625 0 2.328125 1.03125q0.9375 1.015625 0.9375 2.9375q0 1.53125 -0.515625 2.796875q-0.515625 1.265625 -1.265625 2.046875q-0.734375 0.765625 -1.5 1.125q-0.75 0.359375 -1.546875 0.359375q-1.765625 0 -2.75 -1.796875l-1.109375 5.359373l-1.671875 0zm3.3125 -7.812498q0 1.109375 0.15625 1.53125q0.234375 0.609375 0.765625 0.984375q0.53125 0.359375 1.21875 0.359375q1.453125 0 2.34375 -1.625q0.890625 -1.625 0.890625 -3.328125q0 -1.25 -0.609375 -1.921875q-0.59375 -0.6875 -1.484375 -0.6875q-0.640625 0 -1.1875 0.34375q-0.546875 0.328125 -1.015625 1.0q-0.46875 0.671875 -0.78125 1.65625q-0.296875 0.96875 -0.296875 1.6875zm14.531982 2.8125q-0.875 0.75 -1.6875 1.09375q-0.8125 0.34375 -1.71875 0.34375q-1.375 0 -2.21875 -0.796875q-0.828125 -0.796875 -0.828125 -2.0625q0 -0.8125 0.375 -1.453125q0.390625 -0.640625 1.0 -1.015625q0.625 -0.390625 1.53125 -0.5625q0.5625 -0.109375 2.140625 -0.171875q1.578125 -0.0625 2.265625 -0.328125q0.203125 -0.6875 0.203125 -1.140625q0 -0.59375 -0.4375 -0.921875q-0.578125 -0.46875 -1.703125 -0.46875q-1.046875 0 -1.734375 0.46875q-0.671875 0.46875 -0.96875 1.328125l-1.703125 -0.140625q0.515625 -1.46875 1.640625 -2.25q1.140625 -0.78125 2.859375 -0.78125q1.828125 0 2.890625 0.875q0.8125 0.65625 0.8125 1.6875q0 0.796875 -0.234375 1.828125l-0.546875 2.453125q-0.25 1.171875 -0.25 1.890625q0 0.46875 0.203125 1.34375l-1.703125 0q-0.140625 -0.484375 -0.1875 -1.21875zm0.609375 -3.765625q-0.34375 0.125 -0.75 0.203125q-0.40625 0.078125 -1.34375 0.15625q-1.46875 0.140625 -2.078125 0.34375q-0.59375 0.1875 -0.90625 0.625q-0.3125 0.4375 -0.3125 0.96875q0 0.703125 0.484375 1.15625q0.5 0.453125 1.390625 0.453125q0.84375 0 1.609375 -0.4375q0.765625 -0.4375 1.203125 -1.21875q0.453125 -0.796875 0.703125 -2.25zm9.922577 1.390625l1.671875 0.171875q-0.625 1.859375 -1.796875 2.75q-1.15625 0.890625 -2.640625 0.890625q-1.609375 0 -2.609375 -1.03125q-1.0 -1.046875 -1.0 -2.90625q0 -1.609375 0.640625 -3.171875q0.640625 -1.5625 1.828125 -2.375q1.203125 -0.8125 2.734375 -0.8125q1.578125 0 2.5 0.90625q0.9375 0.890625 0.9375 2.359375l-1.65625 0.109375q0 -0.9375 -0.53125 -1.453125q-0.53125 -0.53125 -1.40625 -0.53125q-1.015625 0 -1.765625 0.640625q-0.734375 0.640625 -1.15625 1.9375q-0.421875 1.296875 -0.421875 2.515625q0 1.25 0.546875 1.890625q0.5625 0.625 1.375 0.625q0.828125 0 1.5625 -0.609375q0.75 -0.625 1.1875 -1.90625zm9.765625 0.25l1.625 0.15625q-0.359375 1.21875 -1.625 2.3125q-1.265625 1.09375 -3.015625 1.09375q-1.09375 0 -2.015625 -0.5q-0.90625 -0.5 -1.390625 -1.46875q-0.46875 -0.96875 -0.46875 -2.203125q0 -1.609375 0.75 -3.125q0.75 -1.515625 1.9375 -2.25q1.1875 -0.75 2.5625 -0.75q1.765625 0 2.8125 1.09375q1.0625 1.09375 1.0625 2.984375q0 0.734375 -0.140625 1.484375l-7.25 0q-0.03125 0.296875 -0.03125 0.53125q0 1.375 0.625 2.109375q0.640625 0.71875 1.5625 0.71875q0.859375 0 1.6875 -0.5625q0.84375 -0.5625 1.3125 -1.625zm-4.890625 -2.453125l5.53125 0q0.015625 -0.25 0.015625 -0.359375q0 -1.265625 -0.640625 -1.9375q-0.625 -0.671875 -1.625 -0.671875q-1.0625 0 -1.953125 0.75q-0.890625 0.734375 -1.328125 2.21875z" fill-rule="nonzero"></path><path fill="#000000" fill-opacity="0.0" d="m370.07077 146.47507l117.98425 0l0 32.97638l-117.98425 0z" fill-rule="nonzero"></path><path fill="#000000" d="m390.43015 171.33138q-0.6875 0.1875 -1.4375 0.265625q-0.734375 0.078125 -1.5 0.078125q-2.203125 0 -3.296875 -1.0q-1.09375 -1.015625 -1.09375 -3.09375l0 -6.140625l-3.296875 0l0 -1.703125l3.296875 0l0 -3.234375l2.046875 -0.53125l0 3.765625l5.28125 0l0 1.703125l-5.28125 0l0 5.984375q0 1.265625 0.671875 1.890625q0.671875 0.625 1.984375 0.625q0.5625 0 1.21875 -0.078125q0.671875 -0.09375 1.40625 -0.28125l0 1.75zm13.9609375 -5.8125q0 1.375 -0.390625 2.515625q-0.390625 1.140625 -1.125 1.96875q-0.71875 0.8125 -1.765625 1.265625q-1.03125 0.453125 -2.359375 0.453125q-1.265625 0 -2.265625 -0.390625q-1.0 -0.40625 -1.703125 -1.15625q-0.703125 -0.765625 -1.078125 -1.890625q-0.359375 -1.125 -0.359375 -2.59375q0 -1.375 0.390625 -2.5q0.390625 -1.140625 1.109375 -1.953125q0.734375 -0.8125 1.765625 -1.265625q1.046875 -0.453125 2.375 -0.453125q1.265625 0 2.265625 0.40625q1.0 0.390625 1.6875 1.140625q0.703125 0.75 1.078125 1.875q0.375 1.125 0.375 2.578125zm-2.09375 0.09375q0 -1.078125 -0.25 -1.890625q-0.234375 -0.828125 -0.6875 -1.359375q-0.4375 -0.546875 -1.078125 -0.828125q-0.625 -0.28125 -1.421875 -0.28125q-0.90625 0 -1.5625 0.359375q-0.640625 0.359375 -1.0625 0.96875q-0.421875 0.59375 -0.609375 1.390625q-0.1875 0.78125 -0.1875 1.640625q0 1.09375 0.234375 1.921875q0.234375 0.8125 0.671875 1.359375q0.453125 0.546875 1.078125 0.828125q0.640625 0.265625 1.4375 0.265625q0.921875 0 1.5625 -0.359375q0.65625 -0.359375 1.0625 -0.953125q0.421875 -0.59375 0.609375 -1.375q0.203125 -0.796875 0.203125 -1.6875zm14.5234375 5.71875q-0.6875 0.1875 -1.4375 0.265625q-0.734375 0.078125 -1.5 0.078125q-2.203125 0 -3.296875 -1.0q-1.09375 -1.015625 -1.09375 -3.09375l0 -6.140625l-3.296875 0l0 -1.703125l3.296875 0l0 -3.234375l2.046875 -0.53125l0 3.765625l5.28125 0l0 1.703125l-5.28125 0l0 5.984375q0 1.265625 0.671875 1.890625q0.671875 0.625 1.984375 0.625q0.5625 0 1.21875 -0.078125q0.671875 -0.09375 1.40625 -0.28125l0 1.75zm11.2734375 0.171875l-0.046875 -1.578125q-0.96875 0.9375 -1.953125 1.375q-0.984375 0.421875 -2.078125 0.421875q-1.015625 0 -1.734375 -0.265625q-0.703125 -0.265625 -1.171875 -0.703125q-0.453125 -0.453125 -0.671875 -1.0625q-0.21875 -0.609375 -0.21875 -1.328125q0 -1.765625 1.3125 -2.765625q1.328125 -1.015625 3.90625 -1.015625l2.4375 0l0 -1.03125q0 -1.03125 -0.671875 -1.65625q-0.671875 -0.640625 -2.046875 -0.640625q-0.984375 0 -1.953125 0.234375q-0.96875 0.21875 -2.0 0.625l0 -1.84375q0.390625 -0.140625 0.859375 -0.265625q0.46875 -0.140625 1.0 -0.234375q0.53125 -0.109375 1.09375 -0.171875q0.578125 -0.078125 1.171875 -0.078125q1.0625 0 1.921875 0.234375q0.859375 0.234375 1.4375 0.71875q0.59375 0.484375 0.90625 1.21875q0.328125 0.71875 0.328125 1.703125l0 8.109375l-1.828125 0zm-0.21875 -5.359375l-2.59375 0q-0.765625 0 -1.3125 0.15625q-0.546875 0.15625 -0.90625 0.4375q-0.34375 0.28125 -0.515625 0.671875q-0.171875 0.390625 -0.171875 0.875q0 0.34375 0.09375 0.65625q0.109375 0.3125 0.34375 0.5625q0.234375 0.234375 0.609375 0.375q0.375 0.140625 0.921875 0.140625q0.703125 0 1.609375 -0.421875q0.90625 -0.4375 1.921875 -1.359375l0 -2.09375zm9.8671875 -9.53125l-3.484375 0l0 -1.671875l5.546875 0l0 14.859375l3.5 0l0 1.703125l-9.4375 0l0 -1.703125l3.875 0l0 -13.1875zm32.140625 7.3125l-10.078125 0l0 -1.71875l10.078125 0l0 1.71875zm0 4.078125l-10.078125 0l0 -1.71875l10.078125 0l0 1.71875z" fill-rule="nonzero"></path><path fill="#000000" fill-opacity="0.0" d="m480.49344 139.87665l48.00003 0l0 46.173218l-48.00003 0z" fill-rule="nonzero"></path><path fill="#000000" d="m501.6653 164.26039q0 1.765625 -0.359375 3.21875q-0.34375 1.4375 -1.0625 2.484375q-0.71875 1.03125 -1.78125 1.609375q-1.0625 0.5625 -2.484375 0.5625q-1.234375 0 -2.25 -0.46875q-1.0 -0.46875 -1.71875 -1.421875q-0.703125 -0.96875 -1.09375 -2.453125q-0.390625 -1.484375 -0.390625 -3.53125q0 -1.75 0.359375 -3.203125q0.359375 -1.453125 1.0625 -2.484375q0.71875 -1.046875 1.78125 -1.609375q1.0625 -0.578125 2.484375 -0.578125q1.234375 0 2.234375 0.46875q1.015625 0.453125 1.71875 1.421875q0.71875 0.96875 1.109375 2.46875q0.390625 1.484375 0.390625 3.515625zm-2.0625 0.078125q0 -0.40625 -0.03125 -0.796875q-0.03125 -0.390625 -0.0625 -0.765625l-6.484375 4.8125q0.171875 0.609375 0.4375 1.125q0.28125 0.515625 0.65625 0.890625q0.375 0.359375 0.859375 0.578125q0.5 0.203125 1.109375 0.203125q0.796875 0 1.453125 -0.390625q0.65625 -0.390625 1.109375 -1.140625q0.453125 -0.765625 0.703125 -1.890625q0.25 -1.140625 0.25 -2.625zm-7.015625 -0.140625q0 0.359375 0 0.71875q0.015625 0.359375 0.046875 0.703125l6.484375 -4.796875q-0.171875 -0.59375 -0.453125 -1.078125q-0.265625 -0.5 -0.640625 -0.859375q-0.375 -0.359375 -0.859375 -0.546875q-0.46875 -0.203125 -1.078125 -0.203125q-0.796875 0 -1.453125 0.390625q-0.640625 0.375 -1.09375 1.15625q-0.453125 0.765625 -0.703125 1.890625q-0.25 1.125 -0.25 2.625z" fill-rule="nonzero"></path><path fill="#000000" fill-opacity="0.0" d="m371.11285 273.66403l509.16534 0" fill-rule="nonzero"></path><path stroke="#000000" stroke-width="1.0" stroke-linejoin="round" stroke-linecap="butt" stroke-dasharray="4.0,3.0" d="m371.11285 273.66403l509.16534 0" fill-rule="nonzero"></path><path fill="#000000" fill-opacity="0.0" d="m358.90814 266.66385l232.0315 0l0 29.35431l-232.0315 0z" fill-rule="nonzero"></path><path fill="#000000" d="m414.30338 293.58383l2.859375 -13.59375l1.8125 0l-2.84375 13.59375l-1.828125 0zm4.730194 0l2.0625 -9.859375l1.53125 0l-0.375 1.71875q1.0 -1.0 1.859375 -1.46875q0.859375 -0.46875 1.765625 -0.46875q1.203125 0 1.875 0.65625q0.6875 0.640625 0.6875 1.734375q0 0.546875 -0.25 1.71875l-1.25 5.96875l-1.671875 0l1.3125 -6.25q0.1875 -0.90625 0.1875 -1.34375q0 -0.484375 -0.34375 -0.78125q-0.328125 -0.3125 -0.96875 -0.3125q-1.296875 0 -2.3125 0.921875q-1.0 0.921875 -1.46875 3.1875l-0.953125 4.578125l-1.6875 0zm14.313202 -1.359375l-0.28125 1.375q-0.609375 0.15625 -1.171875 0.15625q-1.0 0 -1.59375 -0.5q-0.453125 -0.375 -0.453125 -1.015625q0 -0.3125 0.25 -1.484375l1.1875 -5.71875l-1.328125 0l0.28125 -1.3125l1.328125 0l0.5 -2.421875l1.921875 -1.15625l-0.75 3.578125l1.65625 0l-0.28125 1.3125l-1.640625 0l-1.140625 5.4375q-0.21875 1.046875 -0.21875 1.25q0 0.296875 0.171875 0.453125q0.171875 0.15625 0.5625 0.15625q0.5625 0 1.0 -0.109375zm8.495819 -1.984375l1.625 0.15625q-0.359375 1.21875 -1.625 2.3125q-1.265625 1.09375 -3.015625 1.09375q-1.09375 0 -2.015625 -0.5q-0.90625 -0.5 -1.390625 -1.46875q-0.46875 -0.96875 -0.46875 -2.203125q0 -1.609375 0.75 -3.125q0.75 -1.515625 1.9375 -2.25q1.1875 -0.75 2.5625 -0.75q1.765625 0 2.8125 1.09375q1.0625 1.09375 1.0625 2.984375q0 0.734375 -0.140625 1.484375l-7.25 0q-0.03125 0.296875 -0.03125 0.53125q0 1.375 0.625 2.109375q0.640625 0.71875 1.5625 0.71875q0.859375 0 1.6875 -0.5625q0.84375 -0.5625 1.3125 -1.625zm-4.890625 -2.453125l5.53125 0q0.015625 -0.25 0.015625 -0.359375q0 -1.265625 -0.640625 -1.9375q-0.625 -0.671875 -1.625 -0.671875q-1.0625 0 -1.953125 0.75q-0.890625 0.734375 -1.328125 2.21875zm8.016327 5.796875l2.0625 -9.859375l1.484375 0l-0.421875 2.015625q0.765625 -1.140625 1.484375 -1.6875q0.734375 -0.546875 1.5 -0.546875q0.5 0 1.234375 0.359375l-0.6875 1.5625q-0.4375 -0.3125 -0.953125 -0.3125q-0.875 0 -1.8125 0.984375q-0.921875 0.984375 -1.453125 3.53125l-0.828125 3.953125l-1.609375 0zm6.212677 0l2.0625 -9.859375l1.53125 0l-0.375 1.71875q1.0 -1.0 1.859375 -1.46875q0.859375 -0.46875 1.765625 -0.46875q1.203125 0 1.875 0.65625q0.6875 0.640625 0.6875 1.734375q0 0.546875 -0.25 1.71875l-1.25 5.96875l-1.671875 0l1.3125 -6.25q0.1875 -0.90625 0.1875 -1.34375q0 -0.484375 -0.34375 -0.78125q-0.328125 -0.3125 -0.96875 -0.3125q-1.296875 0 -2.3125 0.921875q-1.0 0.921875 -1.46875 3.1875l-0.953125 4.578125l-1.6875 0zm14.313232 -1.359375l-0.28125 1.375q-0.609375 0.15625 -1.171875 0.15625q-1.0 0 -1.59375 -0.5q-0.453125 -0.375 -0.453125 -1.015625q0 -0.3125 0.25 -1.484375l1.1875 -5.71875l-1.328125 0l0.28125 -1.3125l1.328125 0l0.5 -2.421875l1.921875 -1.15625l-0.75 3.578125l1.65625 0l-0.28125 1.3125l-1.640625 0l-1.140625 5.4375q-0.21875 1.046875 -0.21875 1.25q0 0.296875 0.171875 0.453125q0.171875 0.15625 0.5625 0.15625q0.5625 0 1.0 -0.109375zm8.819733 -10.34375l0.40625 -1.890625l1.65625 0l-0.390625 1.890625l-1.671875 0zm-2.453125 11.703125l2.0625 -9.859375l1.6875 0l-2.0625 9.859375l-1.6875 0zm9.59375 0l2.84375 -13.59375l2.234375 0l1.375 8.8125q0.265625 1.734375 0.359375 3.328125q0.5625 -1.375 1.890625 -3.71875l4.765625 -8.421875l2.265625 0l-2.828125 13.59375l-1.796875 0l1.421875 -6.609375q0.484375 -2.296875 1.40625 -5.140625q-0.578125 1.328125 -1.4375 2.859375l-5.078125 8.890625l-1.75 0l-1.359375 -8.71875q-0.1875 -1.203125 -0.265625 -2.796875q-0.234375 1.796875 -0.453125 2.84375l-1.8125 8.671875l-1.78125 0zm21.993927 -1.21875q-0.875 0.75 -1.6875 1.09375q-0.8125 0.34375 -1.71875 0.34375q-1.375 0 -2.21875 -0.796875q-0.828125 -0.796875 -0.828125 -2.0625q0 -0.8125 0.375 -1.453125q0.390625 -0.640625 1.0 -1.015625q0.625 -0.390625 1.53125 -0.5625q0.5625 -0.109375 2.140625 -0.171875q1.578125 -0.0625 2.265625 -0.328125q0.203125 -0.6875 0.203125 -1.140625q0 -0.59375 -0.4375 -0.921875q-0.578125 -0.46875 -1.703125 -0.46875q-1.046875 0 -1.734375 0.46875q-0.671875 0.46875 -0.96875 1.328125l-1.703125 -0.140625q0.515625 -1.46875 1.640625 -2.25q1.140625 -0.78125 2.859375 -0.78125q1.828125 0 2.890625 0.875q0.8125 0.65625 0.8125 1.6875q0 0.796875 -0.234375 1.828125l-0.546875 2.453125q-0.25 1.171875 -0.25 1.890625q0 0.46875 0.203125 1.34375l-1.703125 0q-0.140625 -0.484375 -0.1875 -1.21875zm0.609375 -3.765625q-0.34375 0.125 -0.75 0.203125q-0.40625 0.078125 -1.34375 0.15625q-1.46875 0.140625 -2.078125 0.34375q-0.59375 0.1875 -0.90625 0.625q-0.3125 0.4375 -0.3125 0.96875q0 0.703125 0.484375 1.15625q0.5 0.453125 1.390625 0.453125q0.84375 0 1.609375 -0.4375q0.765625 -0.4375 1.203125 -1.21875q0.453125 -0.796875 0.703125 -2.25zm7.047577 3.625l-0.28125 1.375q-0.609375 0.15625 -1.171875 0.15625q-1.0 0 -1.59375 -0.5q-0.453125 -0.375 -0.453125 -1.015625q0 -0.3125 0.25 -1.484375l1.1875 -5.71875l-1.328125 0l0.28125 -1.3125l1.328125 0l0.5 -2.421875l1.921875 -1.15625l-0.75 3.578125l1.6562805 0l-0.28125 1.3125l-1.6406555 0l-1.140625 5.4375q-0.21875 1.046875 -0.21875 1.25q0 0.296875 0.171875 0.453125q0.171875 0.15625 0.5625 0.15625q0.5625 0 1.0 -0.109375zm1.1208191 1.359375l2.84375 -13.59375l1.671875 0l-2.828125 13.59375l-1.6875 0zm10.926086 -1.21875q-0.875 0.75 -1.6875 1.09375q-0.8125 0.34375 -1.71875 0.34375q-1.375 0 -2.21875 -0.796875q-0.828125 -0.796875 -0.828125 -2.0625q0 -0.8125 0.375 -1.453125q0.390625 -0.640625 1.0 -1.015625q0.625 -0.390625 1.53125 -0.5625q0.5625 -0.109375 2.140625 -0.171875q1.578125 -0.0625 2.265625 -0.328125q0.203125 -0.6875 0.203125 -1.140625q0 -0.59375 -0.4375 -0.921875q-0.578125 -0.46875 -1.703125 -0.46875q-1.046875 0 -1.734375 0.46875q-0.671875 0.46875 -0.96875 1.328125l-1.703125 -0.140625q0.515625 -1.46875 1.640625 -2.25q1.140625 -0.78125 2.859375 -0.78125q1.828125 0 2.890625 0.875q0.8125 0.65625 0.8125 1.6875q0 0.796875 -0.234375 1.828125l-0.546875 2.453125q-0.25 1.171875 -0.25 1.890625q0 0.46875 0.203125 1.34375l-1.703125 0q-0.140625 -0.484375 -0.1875 -1.21875zm0.609375 -3.765625q-0.34375 0.125 -0.75 0.203125q-0.40625 0.078125 -1.34375 0.15625q-1.46875 0.140625 -2.078125 0.34375q-0.59375 0.1875 -0.90625 0.625q-0.3125 0.4375 -0.3125 0.96875q0 0.703125 0.484375 1.15625q0.5 0.453125 1.390625 0.453125q0.84375 0 1.609375 -0.4375q0.765625 -0.4375 1.203125 -1.21875q0.453125 -0.796875 0.703125 -2.25zm3.1100464 4.984375l2.84375 -13.59375l1.6875 0l-1.015625 4.859375q0.796875 -0.734375 1.4375 -1.03125q0.65625 -0.3125 1.359375 -0.3125q1.390625 0 2.3125 1.03125q0.921875 1.03125 0.921875 3.0q0 1.3125 -0.375 2.40625q-0.375 1.078125 -0.921875 1.8125q-0.546875 0.734375 -1.140625 1.171875q-0.578125 0.4375 -1.1875 0.65625q-0.609375 0.21875 -1.171875 0.21875q-0.984375 0 -1.734375 -0.515625q-0.734375 -0.515625 -1.140625 -1.5625l-0.390625 1.859375l-1.484375 0zm2.5 -4.046875l-0.015625 0.3125q0 1.265625 0.59375 1.921875q0.609375 0.65625 1.515625 0.65625q0.875 0 1.609375 -0.609375q0.75 -0.625 1.21875 -1.921875q0.46875 -1.3125 0.46875 -2.421875q0 -1.234375 -0.609375 -1.921875q-0.59375 -0.6875 -1.46875 -0.6875q-0.90625 0 -1.671875 0.703125q-0.75 0.703125 -1.265625 2.15625q-0.375 1.078125 -0.375 1.8125z" fill-rule="nonzero"></path><path fill="#000000" fill-opacity="0.0" d="m370.07086 408.8504l535.5591 0l0 32.97638l-535.5591 0z" fill-rule="nonzero"></path><path fill="#000000" d="m390.75836 404.87857l-9.625 0l0 -1.90625l3.9375 0l0 -11.171875l-3.671875 1.984375l-0.75 -1.734375l4.875 -2.5625l1.8125 0l0 13.484375l3.421875 0l0 1.90625zm8.1015625 -11.984375q0.375 0 0.703125 0.15625q0.328125 0.140625 0.5625 0.390625q0.25 0.25 0.390625 0.578125q0.15625 0.328125 0.15625 0.6875q0 0.375 -0.15625 0.703125q-0.140625 0.3125 -0.390625 0.5625q-0.234375 0.25 -0.5625 0.390625q-0.328125 0.140625 -0.703125 0.140625q-0.375 0 -0.703125 -0.140625q-0.3125 -0.140625 -0.5625 -0.390625q-0.234375 -0.25 -0.375 -0.5625q-0.140625 -0.328125 -0.140625 -0.703125q0 -0.359375 0.140625 -0.6875q0.140625 -0.328125 0.375 -0.578125q0.25 -0.25 0.5625 -0.390625q0.328125 -0.15625 0.703125 -0.15625zm0 8.59375q0.375 0 0.703125 0.15625q0.328125 0.140625 0.5625 0.390625q0.25 0.234375 0.390625 0.5625q0.15625 0.328125 0.15625 0.703125q0 0.375 -0.15625 0.703125q-0.140625 0.3125 -0.390625 0.5625q-0.234375 0.234375 -0.5625 0.375q-0.328125 0.15625 -0.703125 0.15625q-0.375 0 -0.703125 -0.15625q-0.3125 -0.140625 -0.5625 -0.375q-0.234375 -0.25 -0.375 -0.5625q-0.140625 -0.328125 -0.140625 -0.703125q0 -0.375 0.140625 -0.703125q0.140625 -0.328125 0.375 -0.5625q0.25 -0.25 0.5625 -0.390625q0.328125 -0.15625 0.703125 -0.15625zm12.4921875 -11.5l-3.484375 0l0 -1.671875l5.546875 0l0 14.859375l3.5 0l0 1.703125l-9.4375 0l0 -1.703125l3.875 0l0 -13.1875zm19.117188 8.390625q0 0.421875 -0.015625 0.71875q0 0.296875 -0.03125 0.546875l-8.265625 0q0 1.8125 1.0 2.78125q1.015625 0.96875 2.921875 0.96875q0.515625 0 1.03125 -0.046875q0.515625 -0.046875 0.984375 -0.109375q0.484375 -0.078125 0.921875 -0.15625q0.453125 -0.09375 0.828125 -0.203125l0 1.6875q-0.84375 0.234375 -1.890625 0.375q-1.046875 0.15625 -2.171875 0.15625q-1.515625 0 -2.609375 -0.40625q-1.078125 -0.421875 -1.78125 -1.203125q-0.6875 -0.78125 -1.03125 -1.90625q-0.328125 -1.140625 -0.328125 -2.5625q0 -1.25 0.359375 -2.34375q0.359375 -1.109375 1.03125 -1.953125q0.6875 -0.84375 1.6875 -1.328125q1.0 -0.5 2.265625 -0.5q1.234375 0 2.171875 0.390625q0.953125 0.390625 1.59375 1.109375q0.65625 0.703125 0.984375 1.71875q0.34375 1.0 0.34375 2.265625zm-2.125 -0.296875q0.046875 -0.78125 -0.140625 -1.4375q-0.1875 -0.65625 -0.59375 -1.125q-0.390625 -0.46875 -0.984375 -0.71875q-0.578125 -0.265625 -1.34375 -0.265625q-0.671875 0 -1.21875 0.265625q-0.546875 0.25 -0.953125 0.71875q-0.390625 0.46875 -0.640625 1.125q-0.25 0.65625 -0.3125 1.4375l6.1875 0zm5.3828125 -4.96875l1.8125 0l0.09375 1.890625q0.515625 -0.609375 0.984375 -1.0q0.484375 -0.40625 0.9375 -0.65625q0.46875 -0.25 0.953125 -0.34375q0.484375 -0.109375 1.0 -0.109375q1.8125 0 2.734375 1.078125q0.9375 1.078125 0.9375 3.234375l0 7.671875l-2.03125 0l0 -7.515625q0 -1.375 -0.515625 -2.03125q-0.515625 -0.671875 -1.53125 -0.671875q-0.375 0 -0.734375 0.109375q-0.359375 0.109375 -0.75 0.390625q-0.390625 0.265625 -0.84375 0.734375q-0.4375 0.46875 -1.0 1.171875l0 7.8125l-2.046875 0l0 -11.765625zm21.664062 1.65625q0.328125 0.421875 0.515625 0.96875q0.1875 0.53125 0.1875 1.171875q0 0.90625 -0.34375 1.671875q-0.328125 0.75 -0.9375 1.296875q-0.609375 0.53125 -1.46875 0.828125q-0.84375 0.296875 -1.859375 0.296875q-0.734375 0 -1.390625 -0.15625q-0.640625 -0.15625 -1.015625 -0.390625q-0.21875 0.328125 -0.375 0.625q-0.15625 0.296875 -0.15625 0.65625q0 0.4375 0.421875 0.734375q0.4375 0.296875 1.140625 0.3125l3.09375 0.125q0.875 0.015625 1.625 0.21875q0.75 0.203125 1.28125 0.578125q0.53125 0.375 0.828125 0.9375q0.296875 0.546875 0.296875 1.265625q0 0.78125 -0.34375 1.484375q-0.328125 0.703125 -1.046875 1.234375q-0.703125 0.546875 -1.796875 0.859375q-1.09375 0.3125 -2.59375 0.3125q-1.421875 0 -2.421875 -0.234375q-1.0 -0.21875 -1.65625 -0.625q-0.640625 -0.40625 -0.9375 -0.96875q-0.28125 -0.546875 -0.28125 -1.21875q0 -0.859375 0.390625 -1.5q0.40625 -0.640625 1.234375 -1.25q-0.3125 -0.140625 -0.53125 -0.34375q-0.21875 -0.21875 -0.359375 -0.46875q-0.140625 -0.25 -0.21875 -0.53125q-0.0625 -0.28125 -0.0625 -0.546875q0 -0.765625 0.359375 -1.390625q0.359375 -0.640625 0.84375 -1.203125q-0.21875 -0.265625 -0.390625 -0.515625q-0.171875 -0.265625 -0.296875 -0.5625q-0.125 -0.296875 -0.1875 -0.640625q-0.0625 -0.359375 -0.0625 -0.796875q0 -0.921875 0.328125 -1.671875q0.34375 -0.75 0.9375 -1.28125q0.609375 -0.546875 1.453125 -0.84375q0.859375 -0.3125 1.890625 -0.3125q0.4375 0 0.828125 0.0625q0.40625 0.0625 0.703125 0.15625l4.265625 0l0 1.65625l-1.890625 0zm-7.078125 11.8125q0 0.828125 0.859375 1.203125q0.875 0.390625 2.421875 0.390625q0.984375 0 1.640625 -0.1875q0.65625 -0.171875 1.0625 -0.453125q0.40625 -0.28125 0.578125 -0.65625q0.1875 -0.375 0.1875 -0.75q0 -0.71875 -0.59375 -1.0625q-0.578125 -0.34375 -1.796875 -0.40625l-3.0625 -0.09375q-0.390625 0.25 -0.640625 0.5q-0.25 0.25 -0.390625 0.5q-0.140625 0.25 -0.203125 0.5q-0.0625 0.25 -0.0625 0.515625zm0.625 -9.625q0 0.5625 0.1875 1.03125q0.1875 0.46875 0.53125 0.796875q0.34375 0.328125 0.796875 0.515625q0.46875 0.171875 1.03125 0.171875q0.609375 0 1.078125 -0.203125q0.484375 -0.203125 0.796875 -0.546875q0.328125 -0.359375 0.5 -0.8125q0.171875 -0.46875 0.171875 -0.953125q0 -0.5625 -0.1875 -1.03125q-0.1875 -0.46875 -0.53125 -0.796875q-0.34375 -0.328125 -0.8125 -0.5q-0.453125 -0.1875 -1.015625 -0.1875q-0.609375 0 -1.09375 0.21875q-0.46875 0.203125 -0.796875 0.546875q-0.3125 0.34375 -0.484375 0.796875q-0.171875 0.453125 -0.171875 0.953125zm20.664062 7.75q-0.6875 0.1875 -1.4375 0.265625q-0.734375 0.078125 -1.5 0.078125q-2.203125 0 -3.296875 -1.0q-1.09375 -1.015625 -1.09375 -3.09375l0 -6.140625l-3.296875 0l0 -1.703125l3.296875 0l0 -3.234375l2.046875 -0.53125l0 3.765625l5.28125 0l0 1.703125l-5.28125 0l0 5.984375q0 1.265625 0.671875 1.890625q0.671875 0.625 1.984375 0.625q0.5625 0 1.21875 -0.078125q0.671875 -0.09375 1.40625 -0.28125l0 1.75zm13.1640625 0.171875l-2.03125 0l0 -7.515625q0 -1.359375 -0.515625 -2.03125q-0.5 -0.671875 -1.453125 -0.671875q-0.40625 0 -0.765625 0.109375q-0.359375 0.109375 -0.75 0.390625q-0.390625 0.265625 -0.84375 0.734375q-0.453125 0.46875 -1.046875 1.171875l0 7.8125l-2.046875 0l0 -16.5625l2.046875 0l0 4.796875l-0.078125 1.84375q0.484375 -0.5625 0.9375 -0.953125q0.46875 -0.40625 0.921875 -0.640625q0.46875 -0.25 0.953125 -0.359375q0.484375 -0.109375 1.0 -0.109375q1.75 0 2.703125 1.078125q0.96875 1.078125 0.96875 3.234375l0 7.671875zm10.7890625 4.921875q-5.40625 -5.0 -5.40625 -11.0625q0 -1.421875 0.28125 -2.828125q0.296875 -1.421875 0.9375 -2.828125q0.640625 -1.421875 1.6875 -2.84375q1.046875 -1.421875 2.546875 -2.8125l1.1875 1.203125q-4.546875 4.5 -4.546875 9.953125q0 2.71875 1.140625 5.234375q1.15625 2.5 3.40625 4.734375l-1.234375 1.25zm5.0546875 -16.6875l2.3125 0l2.890625 7.78125l0.609375 1.890625l0.65625 -1.9375l2.859375 -7.734375l2.234375 0l-4.625 11.765625l-2.34375 0l-4.59375 -11.765625zm16.695312 -5.6875q5.40625 5.0 5.40625 11.140625q0 1.265625 -0.265625 2.625q-0.25 1.359375 -0.875 2.78125q-0.625 1.421875 -1.671875 2.890625q-1.046875 1.46875 -2.640625 2.9375l-1.1875 -1.203125q2.28125 -2.265625 3.40625 -4.71875q1.125 -2.46875 1.125 -5.171875q0 -5.578125 -4.53125 -10.03125l1.234375 -1.25zm33.75 9.875l-10.078125 0l0 -1.71875l10.078125 0l0 1.71875zm0 4.078125l-10.078125 0l0 -1.71875l10.078125 0l0 1.71875zm26.4375 3.5l-9.625 0l0 -1.90625l3.9375 0l0 -11.171875l-3.671875 1.984375l-0.75 -1.734375l4.875 -2.5625l1.8125 0l0 13.484375l3.421875 0l0 1.90625zm8.1015625 -11.984375q0.375 0 0.703125 0.15625q0.328125 0.140625 0.5625 0.390625q0.25 0.25 0.390625 0.578125q0.15625 0.328125 0.15625 0.6875q0 0.375 -0.15625 0.703125q-0.140625 0.3125 -0.390625 0.5625q-0.234375 0.25 -0.5625 0.390625q-0.328125 0.140625 -0.703125 0.140625q-0.375 0 -0.703125 -0.140625q-0.3125 -0.140625 -0.5625 -0.390625q-0.234375 -0.25 -0.375 -0.5625q-0.140625 -0.328125 -0.140625 -0.703125q0 -0.359375 0.140625 -0.6875q0.140625 -0.328125 0.375 -0.578125q0.25 -0.25 0.5625 -0.390625q0.328125 -0.15625 0.703125 -0.15625zm0 8.59375q0.375 0 0.703125 0.15625q0.328125 0.140625 0.5625 0.390625q0.25 0.234375 0.390625 0.5625q0.15625 0.328125 0.15625 0.703125q0 0.375 -0.15625 0.703125q-0.140625 0.3125 -0.390625 0.5625q-0.234375 0.234375 -0.5625 0.375q-0.328125 0.15625 -0.703125 0.15625q-0.375 0 -0.703125 -0.15625q-0.3125 -0.140625 -0.5625 -0.375q-0.234375 -0.25 -0.375 -0.5625q-0.140625 -0.328125 -0.140625 -0.703125q0 -0.375 0.140625 -0.703125q0.140625 -0.328125 0.375 -0.5625q0.25 -0.25 0.5625 -0.390625q0.328125 -0.15625 0.703125 -0.15625zm18.601562 -1.46875q0 1.0625 -0.390625 1.984375q-0.375 0.921875 -1.078125 1.609375q-0.703125 0.6875 -1.6875 1.09375q-0.984375 0.390625 -2.203125 0.390625q-1.265625 0 -2.234375 -0.40625q-0.96875 -0.40625 -1.625 -1.25q-0.65625 -0.84375 -1.0 -2.109375q-0.34375 -1.28125 -0.34375 -3.03125q0 -1.171875 0.15625 -2.265625q0.15625 -1.109375 0.5 -2.078125q0.359375 -0.96875 0.9375 -1.78125q0.59375 -0.8125 1.46875 -1.390625q0.875 -0.578125 2.046875 -0.890625q1.1875 -0.328125 2.75 -0.328125l1.515625 0l0 1.78125l-1.640625 0q-1.375 0 -2.390625 0.328125q-1.0 0.328125 -1.6875 0.921875q-0.671875 0.59375 -1.046875 1.4375q-0.359375 0.84375 -0.453125 1.890625l-0.046875 0.484375q0.75 -0.4375 1.703125 -0.703125q0.96875 -0.265625 2.09375 -0.265625q1.171875 0 2.03125 0.34375q0.875 0.34375 1.453125 0.953125q0.59375 0.59375 0.875 1.4375q0.296875 0.84375 0.296875 1.84375zm-2.125 0.140625q0 -0.703125 -0.171875 -1.265625q-0.171875 -0.578125 -0.546875 -0.96875q-0.359375 -0.390625 -0.921875 -0.609375q-0.546875 -0.21875 -1.3125 -0.21875q-0.453125 0 -0.90625 0.078125q-0.453125 0.078125 -0.90625 0.234375q-0.4375 0.140625 -0.84375 0.328125q-0.390625 0.1875 -0.71875 0.40625q0 1.5 0.203125 2.515625q0.21875 1.015625 0.640625 1.625q0.421875 0.609375 1.03125 0.875q0.609375 0.25 1.40625 0.25q0.65625 0 1.21875 -0.21875q0.5625 -0.21875 0.953125 -0.640625q0.40625 -0.421875 0.640625 -1.015625q0.234375 -0.609375 0.234375 -1.375zm28.15625 -2.859375l-10.078125 0l0 -1.71875l10.078125 0l0 1.71875zm0 4.078125l-10.078125 0l0 -1.71875l10.078125 0l0 1.71875zm24.578125 8.3125l-5.78125 0l0 -21.78125l5.78125 0l0 1.640625l-3.84375 0l0 18.5l3.84375 0l0 1.640625zm15.0546875 -4.8125l-9.625 0l0 -1.90625l3.9375 0l0 -11.171875l-3.671875 1.984375l-0.75 -1.734375l4.875 -2.5625l1.8125 0l0 13.484375l3.421875 0l0 1.90625zm4.3046875 2.40625q0.59375 0.015625 1.15625 -0.109375q0.5625 -0.125 0.984375 -0.375q0.4375 -0.25 0.6875 -0.625q0.265625 -0.375 0.265625 -0.859375q0 -0.5 -0.171875 -0.796875q-0.171875 -0.3125 -0.390625 -0.5625q-0.203125 -0.265625 -0.375 -0.546875q-0.171875 -0.296875 -0.171875 -0.796875q0 -0.25 0.09375 -0.515625q0.09375 -0.265625 0.28125 -0.484375q0.203125 -0.234375 0.5 -0.375q0.296875 -0.140625 0.703125 -0.140625q0.421875 0 0.796875 0.171875q0.375 0.171875 0.65625 0.53125q0.296875 0.34375 0.46875 0.875q0.171875 0.53125 0.171875 1.234375q0 0.984375 -0.359375 1.875q-0.359375 0.90625 -1.078125 1.59375q-0.703125 0.6875 -1.765625 1.09375q-1.046875 0.421875 -2.453125 0.421875l0 -1.609375zm35.40625 -2.40625l-10.09375 0l0 -1.828125l3.96875 -3.9375q0.96875 -0.96875 1.578125 -1.671875q0.609375 -0.703125 0.953125 -1.28125q0.34375 -0.578125 0.453125 -1.09375q0.125 -0.515625 0.125 -1.109375q0 -0.5625 -0.15625 -1.0625q-0.15625 -0.515625 -0.46875 -0.90625q-0.3125 -0.390625 -0.828125 -0.609375q-0.5 -0.21875 -1.203125 -0.21875q-0.96875 0 -1.765625 0.4375q-0.796875 0.421875 -1.46875 1.109375l-1.125 -1.34375q0.875 -0.90625 2.0 -1.453125q1.125 -0.5625 2.625 -0.5625q1.03125 0 1.859375 0.3125q0.84375 0.296875 1.453125 0.875q0.609375 0.578125 0.9375 1.40625q0.34375 0.828125 0.34375 1.875q0 0.875 -0.234375 1.625q-0.234375 0.75 -0.71875 1.5q-0.46875 0.734375 -1.1875 1.53125q-0.71875 0.796875 -1.703125 1.75l-2.78125 2.703125l7.4375 0l0 1.953125zm4.1796875 2.40625q0.59375 0.015625 1.15625 -0.109375q0.5625 -0.125 0.984375 -0.375q0.4375 -0.25 0.6875 -0.625q0.265625 -0.375 0.265625 -0.859375q0 -0.5 -0.171875 -0.796875q-0.171875 -0.3125 -0.390625 -0.5625q-0.203125 -0.265625 -0.375 -0.546875q-0.171875 -0.296875 -0.171875 -0.796875q0 -0.25 0.09375 -0.515625q0.09375 -0.265625 0.28125 -0.484375q0.203125 -0.234375 0.5 -0.375q0.296875 -0.140625 0.703125 -0.140625q0.421875 0 0.796875 0.171875q0.375 0.171875 0.65625 0.53125q0.296875 0.34375 0.46875 0.875q0.171875 0.53125 0.171875 1.234375q0 0.984375 -0.359375 1.875q-0.359375 0.90625 -1.078125 1.59375q-0.703125 0.6875 -1.765625 1.09375q-1.046875 0.421875 -2.453125 0.421875l0 -1.609375zm35.109375 -7.0625q0 1.015625 -0.40625 1.90625q-0.40625 0.875 -1.234375 1.546875q-0.8125 0.65625 -2.0625 1.046875q-1.234375 0.375 -2.890625 0.375q-0.90625 0 -1.640625 -0.0625q-0.71875 -0.0625 -1.359375 -0.15625l0 -1.828125q0.734375 0.125 1.53125 0.203125q0.8125 0.0625 1.65625 0.0625q1.15625 0 1.96875 -0.203125q0.8125 -0.203125 1.328125 -0.59375q0.515625 -0.390625 0.75 -0.9375q0.234375 -0.546875 0.234375 -1.234375q0 -0.640625 -0.28125 -1.109375q-0.28125 -0.46875 -0.796875 -0.78125q-0.5 -0.3125 -1.21875 -0.46875q-0.703125 -0.171875 -1.546875 -0.171875l-1.75 0l0 -1.671875l1.765625 0q0.703125 0 1.265625 -0.171875q0.5625 -0.1875 0.96875 -0.53125q0.40625 -0.34375 0.625 -0.828125q0.21875 -0.5 0.21875 -1.140625q0 -1.234375 -0.75 -1.796875q-0.75 -0.5625 -2.203125 -0.5625q-0.78125 0 -1.609375 0.15625q-0.8125 0.15625 -1.75 0.453125l0 -1.78125q0.40625 -0.140625 0.859375 -0.25q0.453125 -0.109375 0.890625 -0.1875q0.453125 -0.078125 0.890625 -0.109375q0.453125 -0.046875 0.875 -0.046875q1.21875 0 2.140625 0.265625q0.921875 0.265625 1.546875 0.765625q0.625 0.484375 0.9375 1.1875q0.3125 0.703125 0.3125 1.578125q0 1.3125 -0.671875 2.203125q-0.671875 0.890625 -1.84375 1.421875q0.59375 0.09375 1.171875 0.375q0.578125 0.28125 1.046875 0.71875q0.46875 0.4375 0.75 1.046875q0.28125 0.59375 0.28125 1.3125zm4.4765625 7.0625q0.59375 0.015625 1.15625 -0.109375q0.5625 -0.125 0.984375 -0.375q0.4375 -0.25 0.6875 -0.625q0.265625 -0.375 0.265625 -0.859375q0 -0.5 -0.171875 -0.796875q-0.171875 -0.3125 -0.390625 -0.5625q-0.203125 -0.265625 -0.375 -0.546875q-0.171875 -0.296875 -0.171875 -0.796875q0 -0.25 0.09375 -0.515625q0.09375 -0.265625 0.28125 -0.484375q0.203125 -0.234375 0.5 -0.375q0.296875 -0.140625 0.703125 -0.140625q0.421875 0 0.796875 0.171875q0.375 0.171875 0.65625 0.53125q0.296875 0.34375 0.46875 0.875q0.171875 0.53125 0.171875 1.234375q0 0.984375 -0.359375 1.875q-0.359375 0.90625 -1.078125 1.59375q-0.703125 0.6875 -1.765625 1.09375q-1.046875 0.421875 -2.453125 0.421875l0 -1.609375zm36.171875 -5.796875l-2.609375 0l0 3.390625l-2.09375 0l0 -3.390625l-7.375 0l0 -1.796875l6.53125 -10.125l2.9375 0l0 10.125l2.609375 0l0 1.796875zm-4.703125 -9.953125l-5.328125 8.15625l5.328125 0l0 -8.15625zm8.1171875 15.75q0.59375 0.015625 1.15625 -0.109375q0.5625 -0.125 0.984375 -0.375q0.4375 -0.25 0.6875 -0.625q0.265625 -0.375 0.265625 -0.859375q0 -0.5 -0.171875 -0.796875q-0.171875 -0.3125 -0.390625 -0.5625q-0.203125 -0.265625 -0.375 -0.546875q-0.171875 -0.296875 -0.171875 -0.796875q0 -0.25 0.09375 -0.515625q0.09375 -0.265625 0.28125 -0.484375q0.203125 -0.234375 0.5 -0.375q0.296875 -0.140625 0.703125 -0.140625q0.421875 0 0.796875 0.171875q0.375 0.171875 0.65625 0.53125q0.296875 0.34375 0.46875 0.875q0.171875 0.53125 0.171875 1.234375q0 0.984375 -0.359375 1.875q-0.359375 0.90625 -1.078125 1.59375q-0.703125 0.6875 -1.765625 1.09375q-1.046875 0.421875 -2.453125 0.421875l0 -1.609375zm35.015625 -7.3125q0 1.140625 -0.5 2.078125q-0.484375 0.9375 -1.34375 1.609375q-0.859375 0.671875 -2.03125 1.0625q-1.171875 0.375 -2.53125 0.375q-0.34375 0 -0.734375 -0.03125q-0.390625 -0.015625 -0.78125 -0.046875q-0.375 -0.015625 -0.75 -0.0625q-0.375 -0.03125 -0.65625 -0.078125l0 -1.859375q0.625 0.15625 1.4375 0.234375q0.8125 0.0625 1.65625 0.0625q0.9375 0 1.6875 -0.21875q0.75 -0.21875 1.265625 -0.640625q0.53125 -0.421875 0.8125 -1.0q0.28125 -0.59375 0.28125 -1.34375q0 -1.421875 -1.03125 -2.0625q-1.015625 -0.65625 -2.9375 -0.65625l-2.90625 0l0 -7.828125l8.25 0l0 1.78125l-6.328125 0l0 4.296875l1.328125 0q1.109375 0 2.140625 0.203125q1.046875 0.1875 1.859375 0.6875q0.828125 0.5 1.3125 1.34375q0.5 0.828125 0.5 2.09375zm4.5703125 7.3125q0.59375 0.015625 1.15625 -0.109375q0.5625 -0.125 0.984375 -0.375q0.4375 -0.25 0.6875 -0.625q0.265625 -0.375 0.265625 -0.859375q0 -0.5 -0.171875 -0.796875q-0.171875 -0.3125 -0.390625 -0.5625q-0.203125 -0.265625 -0.375 -0.546875q-0.171875 -0.296875 -0.171875 -0.796875q0 -0.25 0.09375 -0.515625q0.09375 -0.265625 0.28125 -0.484375q0.203125 -0.234375 0.5 -0.375q0.296875 -0.140625 0.703125 -0.140625q0.421875 0 0.796875 0.171875q0.375 0.171875 0.65625 0.53125q0.296875 0.34375 0.46875 0.875q0.171875 0.53125 0.171875 1.234375q0 0.984375 -0.359375 1.875q-0.359375 0.90625 -1.078125 1.59375q-0.703125 0.6875 -1.765625 1.09375q-1.046875 0.421875 -2.453125 0.421875l0 -1.609375zm35.59375 -7.265625q0 1.0625 -0.390625 1.984375q-0.375 0.921875 -1.078125 1.609375q-0.703125 0.6875 -1.6875 1.09375q-0.984375 0.390625 -2.203125 0.390625q-1.265625 0 -2.234375 -0.40625q-0.96875 -0.40625 -1.625 -1.25q-0.65625 -0.84375 -1.0 -2.109375q-0.34375 -1.28125 -0.34375 -3.03125q0 -1.171875 0.15625 -2.265625q0.15625 -1.109375 0.5 -2.078125q0.359375 -0.96875 0.9375 -1.78125q0.59375 -0.8125 1.46875 -1.390625q0.875 -0.578125 2.046875 -0.890625q1.1875 -0.328125 2.75 -0.328125l1.515625 0l0 1.78125l-1.640625 0q-1.375 0 -2.390625 0.328125q-1.0 0.328125 -1.6875 0.921875q-0.671875 0.59375 -1.046875 1.4375q-0.359375 0.84375 -0.453125 1.890625l-0.046875 0.484375q0.75 -0.4375 1.703125 -0.703125q0.96875 -0.265625 2.09375 -0.265625q1.171875 0 2.03125 0.34375q0.875 0.34375 1.453125 0.953125q0.59375 0.59375 0.875 1.4375q0.296875 0.84375 0.296875 1.84375zm-2.125 0.140625q0 -0.703125 -0.171875 -1.265625q-0.171875 -0.578125 -0.546875 -0.96875q-0.359375 -0.390625 -0.921875 -0.609375q-0.546875 -0.21875 -1.3125 -0.21875q-0.453125 0 -0.90625 0.078125q-0.453125 0.078125 -0.90625 0.234375q-0.4375 0.140625 -0.84375 0.328125q-0.390625 0.1875 -0.71875 0.40625q0 1.5 0.203125 2.515625q0.21875 1.015625 0.640625 1.625q0.421875 0.609375 1.03125 0.875q0.609375 0.25 1.40625 0.25q0.65625 0 1.21875 -0.21875q0.5625 -0.21875 0.953125 -0.640625q0.40625 -0.421875 0.640625 -1.015625q0.234375 -0.609375 0.234375 -1.375zm12.4765625 9.53125l-5.78125 0l0 -1.640625l3.8125 0l0 -18.5l-3.8125 0l0 -1.640625l5.78125 0l0 21.78125z" fill-rule="nonzero"></path></g></svg>

